<svg width="24" height="17" viewBox="0 0 24 17" fill="none" xmlns="http://www.w3.org/2000/svg">
<path d="M0 2.5C0 1.39543 0.895431 0.5 2 0.5H22C23.1046 0.5 24 1.39543 24 2.5V14.5C24 15.6046 23.1046 16.5 22 16.5H2C0.89543 16.5 0 15.6046 0 14.5V2.5Z" fill="#B2141B"/>
<path d="M6.65756 6.92964L6.72489 6.92986L6.77846 6.91162L6.83206 6.89338L6.87945 6.84529L6.92687 6.79722L6.9518 6.73313L6.97679 6.66906L6.97766 6.57473L6.97855 6.48045L6.95638 6.44359L6.93417 6.40676L6.89555 6.38285L6.85689 6.35892H6.69004L6.63324 6.38436L6.57644 6.40977L6.54348 6.44509L6.51052 6.48045L6.4846 6.54148L6.45871 6.6025L6.45382 6.69757L6.44895 6.79265L6.47302 6.83991L6.49715 6.88714L6.54367 6.90826L6.59017 6.92935L6.65756 6.92964V6.92964ZM17.3952 9.63754H17.6374V9.48929L17.6653 9.30541C17.6807 9.20429 17.706 9.0441 17.7216 8.94954C17.7372 8.85492 17.7567 8.73511 17.7648 8.68317C17.773 8.6313 17.7946 8.51898 17.8129 8.43354C17.8313 8.34807 17.8541 8.25572 17.8637 8.22823C17.8733 8.20077 17.8813 8.17194 17.8814 8.1642C17.8815 8.15645 17.9021 8.1066 17.9273 8.05341L17.973 7.95668L18.0334 7.87652L18.0937 7.79639L18.1597 7.74676C18.196 7.71943 18.2544 7.68324 18.2895 7.66625L18.3532 7.63537L18.4919 7.63633L18.6306 7.63732L18.6852 7.65482L18.7398 7.67236L18.749 7.66666L18.7582 7.66097L18.7587 7.62557C18.759 7.60609 18.7708 7.53364 18.7851 7.46452L18.8111 7.33889L18.7819 7.32746C18.7539 7.31709 18.7257 7.30746 18.6972 7.2986L18.6418 7.28109L18.5419 7.28138L18.442 7.28161L18.3606 7.31028L18.2792 7.33889L18.2181 7.37575L18.157 7.41261L18.0776 7.49585L17.9981 7.57905L17.9554 7.64362C17.932 7.67914 17.9113 7.7066 17.9095 7.70465C17.9077 7.70273 17.9205 7.62871 17.9378 7.54023C17.9552 7.45172 17.9697 7.36807 17.9699 7.35434L17.9704 7.32935H17.5598V7.33645C17.5598 7.34033 17.5496 7.41149 17.5371 7.49457C17.5246 7.57767 17.4994 7.73802 17.4813 7.85095C17.4594 7.98602 17.4373 8.12103 17.415 8.25601C17.3955 8.37268 17.3751 8.48922 17.3537 8.60554C17.3383 8.68791 17.3109 8.83281 17.2929 8.92737C17.2748 9.02199 17.2452 9.17431 17.227 9.26586L17.1735 9.53492L17.153 9.63754H17.3952V9.63754ZM11.7708 9.63754H12.0077L12.0149 9.53729C12.0188 9.48221 12.0322 9.37105 12.0447 9.29041C12.0571 9.20973 12.0827 9.04884 12.1014 8.9329C12.1251 8.78954 12.1509 8.64653 12.1788 8.50391C12.2026 8.38397 12.2296 8.26477 12.2386 8.23901C12.2478 8.21322 12.2552 8.18532 12.2552 8.17697C12.2552 8.16858 12.273 8.12301 12.2948 8.07569C12.3166 8.02836 12.3571 7.95591 12.385 7.91466L12.4355 7.83965L12.5032 7.77693L12.5709 7.71428L12.6544 7.67441L12.7379 7.6345L12.8655 7.63521L12.9931 7.63588L13.0558 7.6546C13.0903 7.6649 13.1216 7.67335 13.1252 7.67335C13.1288 7.67335 13.1318 7.66157 13.1318 7.64714C13.1318 7.63274 13.1443 7.55965 13.1595 7.48471C13.1748 7.4098 13.1873 7.34535 13.1873 7.34148C13.1873 7.33761 13.1511 7.32343 13.1068 7.30999C13.0626 7.29655 13.0014 7.28247 12.9709 7.27866L12.9154 7.27181L12.8433 7.28458C12.8036 7.29159 12.7446 7.30708 12.7122 7.31901C12.6797 7.33092 12.6262 7.35793 12.5932 7.37905C12.5602 7.4002 12.5088 7.44135 12.4791 7.4705C12.4493 7.49969 12.3993 7.55853 12.3679 7.60125C12.3434 7.63447 12.3191 7.66775 12.2949 7.70113L12.279 7.7233L12.2887 7.67895C12.294 7.6545 12.3088 7.5746 12.3215 7.50138C12.3342 7.42813 12.3474 7.35943 12.3506 7.34881L12.3565 7.32935H11.9333V7.3561C11.9333 7.37082 11.9208 7.45943 11.9056 7.55306C11.8903 7.64673 11.8651 7.80321 11.8496 7.90087C11.8341 7.99853 11.8066 8.16833 11.7885 8.27818C11.7692 8.39485 11.7488 8.51143 11.7274 8.62772C11.6856 8.84983 11.6429 9.07178 11.5992 9.29354C11.5805 9.38817 11.5581 9.49985 11.5495 9.54186C11.5409 9.58381 11.5338 9.6225 11.5338 9.62781V9.63757H11.7708V9.63754V9.63754ZM6.18812 9.63754H6.42681L6.43353 9.62004C6.43727 9.61034 6.44028 9.58503 6.44028 9.56378C6.44028 9.54247 6.45532 9.43172 6.47363 9.31773C6.51551 9.05799 6.55843 8.79837 6.60239 8.53895C6.62124 8.42964 6.64108 8.32049 6.66188 8.21156C6.67955 8.12004 6.70668 7.9777 6.72217 7.89533C6.73763 7.81293 6.76809 7.65617 6.78982 7.54695C6.81155 7.43773 6.83203 7.34404 6.83532 7.33869L6.84137 7.32893L6.59999 7.33191L6.35862 7.33489L6.33846 7.47917C6.32745 7.55853 6.30326 7.71585 6.28476 7.82871C6.2663 7.94164 6.23833 8.11396 6.22262 8.21156C6.20361 8.32829 6.18332 8.44484 6.16182 8.56116C6.14406 8.65572 6.11686 8.80052 6.10134 8.88292C6.08585 8.96535 6.05804 9.11018 6.03955 9.20481C6.02105 9.29943 5.99625 9.42423 5.98441 9.48225C5.97254 9.54023 5.95983 9.59889 5.95612 9.61261L5.94943 9.63754H6.18812ZM3.20326 9.63754H3.47286L3.49222 9.51828C3.50284 9.45265 3.52364 9.32653 3.53839 9.23809L3.59942 8.87185C3.61823 8.75892 3.64646 8.59165 3.66211 8.50013C3.67775 8.40858 3.70265 8.26657 3.71737 8.18455C3.73212 8.10247 3.747 8.03258 3.75039 8.02916L3.75663 8.02295H5.20665L5.21471 8.03098L5.22278 8.03905L5.21017 8.10311C5.20329 8.13837 5.18284 8.24708 5.16476 8.34474C5.14668 8.44241 5.11628 8.60717 5.09718 8.71098C5.07711 8.82017 5.0567 8.92929 5.03593 9.03834C5.02127 9.1146 4.99164 9.27441 4.97007 9.39341C4.94854 9.51242 4.93094 9.61604 4.931 9.62372L4.93113 9.63754H5.4726L5.48457 9.56823C5.49119 9.53012 5.50175 9.46141 5.50815 9.41565C5.51449 9.36983 5.52988 9.27239 5.54227 9.19921C5.55465 9.12602 5.57939 8.98116 5.59727 8.87738C5.61513 8.77364 5.64508 8.59633 5.66377 8.48343C5.68246 8.3705 5.71017 8.20573 5.7254 8.11725C5.74467 8.00615 5.76473 7.89517 5.78556 7.78433C5.80345 7.6897 5.83327 7.52993 5.85183 7.42919C5.87039 7.32852 5.89814 7.1762 5.91356 7.09073C5.92899 7.00529 5.95708 6.85047 5.97603 6.74673C5.99497 6.64298 6.01887 6.52189 6.02915 6.47761L6.04783 6.39716H5.49958L5.49212 6.44989C5.48806 6.47885 5.47481 6.56004 5.46271 6.63021C5.45059 6.70042 5.42863 6.82522 5.41385 6.90762C5.39907 6.99005 5.37206 7.14733 5.35382 7.25722C5.33593 7.36484 5.31871 7.47255 5.30217 7.58039L5.28367 7.70381L4.88127 7.71197L4.47884 7.7201L4.14182 7.7121C3.95644 7.70772 3.80374 7.70321 3.80246 7.70218C3.80121 7.70109 3.80751 7.65799 3.81647 7.60634C3.82828 7.53975 3.84086 7.47332 3.8542 7.40701C3.87123 7.32202 3.88777 7.23693 3.9038 7.15175C3.91932 7.06938 3.93686 6.96701 3.94284 6.92429C3.94879 6.88157 3.96131 6.81041 3.97062 6.76612C3.97993 6.72189 3.99759 6.62868 4.00988 6.55901C4.02214 6.48935 4.03523 6.42442 4.03897 6.41476L4.04569 6.39716H3.50185L3.48447 6.49428C3.47487 6.54769 3.46211 6.62381 3.45609 6.66349C3.45004 6.70317 3.42979 6.8305 3.41107 6.94647C3.39235 7.06244 3.3647 7.23473 3.34963 7.32932L3.28873 7.71217C3.26732 7.84551 3.24473 7.97869 3.22102 8.11165C3.20127 8.22087 3.18115 8.32999 3.16063 8.43905C3.1462 8.51533 3.11871 8.66013 3.09951 8.7609C3.07939 8.86641 3.05862 8.97185 3.03727 9.07716C3.02223 9.15041 3.00563 9.23527 3.00038 9.2658C2.99507 9.29629 2.97791 9.38436 2.96217 9.46141C2.94646 9.53847 2.93359 9.60961 2.93359 9.61953V9.63751H3.20326V9.63754V9.63754ZM19.3463 9.69153L19.4517 9.6929L19.5516 9.67665C19.6066 9.66778 19.6764 9.65338 19.707 9.64477C19.7375 9.6361 19.7924 9.6137 19.829 9.59495L19.8956 9.56084L19.9529 9.51041L20.0101 9.45997L20.0705 9.37959C20.1037 9.33527 20.1337 9.29165 20.1372 9.28247L20.1437 9.2658L20.1381 9.32129C20.1341 9.35841 20.129 9.39546 20.1227 9.43229C20.1173 9.46279 20.1097 9.52148 20.1057 9.56266L20.0983 9.63754H20.5337V9.48778L20.5669 9.20477C20.5851 9.04909 20.6121 8.84189 20.6268 8.7442C20.6415 8.6465 20.6643 8.50676 20.6773 8.43351C20.6904 8.36026 20.7135 8.22791 20.7287 8.13943C20.7439 8.05095 20.7714 7.8961 20.7897 7.79543C20.8081 7.69469 20.8375 7.53492 20.855 7.44033C20.8726 7.3457 20.8999 7.19837 20.9157 7.11293C20.9315 7.02749 20.9597 6.87767 20.9785 6.78004C20.9982 6.67818 21.0185 6.57642 21.0395 6.47482C21.0543 6.40468 21.0664 6.34346 21.0663 6.33892V6.33057H20.5913L20.5843 6.39994C20.5805 6.43809 20.5623 6.56417 20.5439 6.68017C20.5221 6.81709 20.5 6.95393 20.4774 7.09073C20.4642 7.16964 20.4512 7.24855 20.4383 7.32749L20.4324 7.36449L20.4137 7.35652C20.4034 7.35213 20.3474 7.33661 20.2895 7.32205L20.1841 7.29559L20.0398 7.28436L19.8955 7.27313L19.7735 7.28449L19.6514 7.29588L19.5404 7.32394L19.4295 7.35197L19.3241 7.4034L19.2186 7.45482L19.1409 7.51229L19.0632 7.5698L18.9961 7.64177C18.9592 7.68132 18.9059 7.74676 18.8777 7.78717L18.8263 7.86065L18.766 7.98615C18.7328 8.05521 18.6924 8.14663 18.6763 8.18935C18.6601 8.2321 18.6316 8.32679 18.6129 8.39981L18.5789 8.53261L18.5622 8.70503L18.5455 8.87741L18.558 9.0161L18.5707 9.15485L18.5855 9.20481C18.5937 9.23223 18.6109 9.28119 18.6238 9.31348L18.6472 9.37236L18.6899 9.43018L18.7327 9.48801L18.7814 9.52794L18.8302 9.56794L18.8968 9.601C18.9334 9.61911 18.9948 9.64269 19.0333 9.65319C19.0717 9.66375 19.1341 9.67639 19.172 9.68132C19.2099 9.68621 19.2883 9.69085 19.3463 9.69153V9.69153ZM19.5355 9.37677L19.4517 9.38116L19.3952 9.37098C19.3641 9.36541 19.3143 9.35034 19.2846 9.33761L19.2305 9.31447L19.185 9.27716L19.1395 9.23991L19.072 9.11047L19.0565 9.03834L19.0412 8.96615L19.0425 8.82189L19.0438 8.67764L19.0617 8.55002L19.0796 8.42241L19.1074 8.33364C19.1227 8.28481 19.1353 8.23873 19.1354 8.23124C19.1355 8.22378 19.1505 8.18385 19.1689 8.1425C19.1904 8.09466 19.2131 8.04737 19.2371 8.00071C19.2562 7.96407 19.292 7.90701 19.3165 7.87386C19.3411 7.84071 19.385 7.79076 19.4139 7.76285C19.4428 7.73501 19.4888 7.69841 19.5162 7.68161L19.5658 7.65105L19.6531 7.62084L19.7403 7.59063L19.9234 7.59053H20.1066L20.212 7.61981C20.27 7.63588 20.3315 7.65453 20.3488 7.66125L20.3802 7.67345L20.3741 7.70391C20.3707 7.72068 20.3575 7.79431 20.3448 7.86753C20.332 7.94077 20.3069 8.08061 20.2889 8.17828C20.271 8.27594 20.2434 8.42327 20.2276 8.50564C20.2119 8.58801 20.189 8.6929 20.1769 8.73863C20.1644 8.7857 20.1517 8.83265 20.1388 8.87956C20.13 8.91124 20.1091 8.96625 20.0923 9.00161C20.0755 9.03703 20.0461 9.08849 20.027 9.11591C20.0078 9.1434 19.9755 9.18148 19.9551 9.20049C19.9346 9.21956 19.8905 9.25335 19.8569 9.27569L19.7959 9.31626L19.6194 9.37226L19.5355 9.37677V9.37677ZM15.5954 9.68759L15.7451 9.68327L15.8395 9.65914L15.9338 9.63495L15.9949 9.60615C16.0284 9.59034 16.0834 9.55895 16.1169 9.53652C16.1505 9.51415 16.2025 9.47153 16.2324 9.44183C16.2623 9.41213 16.3067 9.36151 16.331 9.32932C16.3553 9.29706 16.3767 9.2722 16.3785 9.27399C16.3803 9.27581 16.3747 9.32705 16.366 9.38797C16.3574 9.44897 16.3502 9.53002 16.3501 9.56817L16.3499 9.63748H16.7572L16.7634 9.47943L16.7697 9.32125L16.7987 9.11594C16.8147 9.00301 16.8405 8.83575 16.8561 8.7442C16.8716 8.65271 16.8987 8.49789 16.9162 8.4002C16.9338 8.30253 16.9615 8.15025 16.9778 8.06173L17.0077 7.90084L17.0087 7.76186L17.0097 7.62285L16.9783 7.55863L16.9468 7.49437L16.9042 7.45348L16.8616 7.41255L16.7917 7.37713L16.7217 7.34164L16.5131 7.29524L16.3695 7.28433L16.2259 7.27341L16.041 7.28487C15.9393 7.29114 15.7962 7.30356 15.7229 7.31249L15.5898 7.32861L15.4082 7.32932L15.395 7.39316C15.3878 7.42823 15.3676 7.51159 15.3502 7.57844C15.3328 7.64525 15.3202 7.70151 15.3221 7.70349C15.3241 7.70548 15.3726 7.69444 15.43 7.67901C15.4873 7.66356 15.6092 7.63821 15.7008 7.6226L15.8672 7.59425L16.017 7.5881L16.1668 7.58189L16.3599 7.61575L16.4242 7.64753L16.4887 7.67933L16.5247 7.73309L16.5608 7.78682L16.5603 7.87156L16.5598 7.95633L16.5406 8.04932L16.5215 8.14234L16.1222 8.14378L15.7229 8.14519L15.5922 8.18103C15.5203 8.20074 15.4408 8.22692 15.4154 8.23917C15.3899 8.25146 15.3645 8.26151 15.3589 8.26151C15.3532 8.26151 15.3105 8.28519 15.2639 8.31421L15.1791 8.36685L15.1124 8.43348C15.0757 8.47012 15.0288 8.52506 15.0082 8.55556C14.9875 8.58605 14.9541 8.6498 14.9338 8.69725L14.8969 8.78343L14.8799 8.88029L14.863 8.97722V9.18058L14.8791 9.26522L14.8954 9.34986L14.9254 9.40513C14.9419 9.43543 14.9723 9.47994 14.9928 9.50394L15.0301 9.54762L15.0965 9.58794L15.1628 9.62826L15.2388 9.6497C15.2806 9.66151 15.3442 9.67588 15.3802 9.68157L15.4455 9.69188L15.5954 9.68756V9.68759ZM15.7341 9.37729L15.6453 9.38193L15.5865 9.36692C15.5542 9.35873 15.5051 9.34036 15.4775 9.32618L15.4273 9.30029L15.3998 9.26772C15.3847 9.24973 15.3617 9.21453 15.3486 9.18941L15.3248 9.14372L15.3202 9.03709L15.3155 8.93041L15.3343 8.86567C15.3446 8.83012 15.3689 8.76829 15.3883 8.72842L15.4234 8.65591L15.4907 8.58909L15.558 8.52228L15.6294 8.48788L15.7008 8.45351L15.7896 8.43239L15.8784 8.4113H16.4332L16.4508 8.41857L16.4683 8.4258L16.4536 8.5129C16.4455 8.56077 16.4261 8.6474 16.4105 8.70541C16.395 8.7634 16.3675 8.84861 16.3495 8.89479C16.3315 8.94103 16.3167 8.98186 16.3167 8.98554C16.3167 8.98929 16.2985 9.02292 16.2762 9.06036L16.2356 9.12842L16.1691 9.19437C16.1325 9.23063 16.0985 9.26026 16.0936 9.26026C16.0887 9.26026 16.0663 9.27284 16.0438 9.28807L16.0029 9.31575L15.9129 9.34426L15.8229 9.37271L15.7341 9.37729V9.37729ZM13.7699 9.69172L13.8921 9.69303L14.0307 9.67658C14.107 9.66759 14.2085 9.65258 14.2563 9.64327C14.3141 9.63165 14.3715 9.61802 14.4283 9.60247C14.4751 9.58922 14.5174 9.57492 14.5224 9.57073C14.5273 9.56647 14.5405 9.5161 14.5517 9.45879C14.563 9.40148 14.5771 9.32461 14.5831 9.28804C14.5891 9.2514 14.5923 9.21946 14.5901 9.21709C14.5878 9.21466 14.5797 9.21777 14.5719 9.22391C14.5641 9.23015 14.5097 9.25303 14.4509 9.27485L14.3441 9.31453L14.1919 9.34404L14.0397 9.37348L13.9103 9.36909L13.781 9.36465L13.7074 9.33914L13.6339 9.31364L13.5772 9.26401L13.5204 9.21431L13.4827 9.14567L13.4451 9.07709L13.4271 8.98529L13.4091 8.89354L13.4093 8.77447L13.4094 8.6554L13.4312 8.51114L13.453 8.36685L13.4761 8.28916C13.4888 8.24644 13.5032 8.19652 13.508 8.17821C13.5129 8.15988 13.5332 8.10746 13.5532 8.06167C13.5732 8.01591 13.6089 7.94516 13.6325 7.90445L13.6755 7.8305L13.7282 7.77581L13.781 7.72113L13.8368 7.6865L13.8927 7.65185L13.9645 7.62973C14.0039 7.61757 14.0737 7.6018 14.1194 7.59469L14.2027 7.5817L14.3247 7.58785L14.4468 7.59396L14.5911 7.62285L14.7354 7.65169L14.794 7.67357C14.8263 7.68561 14.8541 7.69549 14.8558 7.69549C14.8576 7.69549 14.8653 7.65428 14.873 7.60391C14.8808 7.55357 14.8945 7.47073 14.9036 7.41985C14.9127 7.3689 14.918 7.32506 14.9153 7.32241C14.9126 7.31972 14.8692 7.31284 14.8189 7.30711C14.7686 7.30138 14.6318 7.29121 14.515 7.28445L14.3026 7.27226L14.1527 7.28375L14.0029 7.29527L13.8919 7.31857L13.7809 7.34189L13.7095 7.37047C13.6701 7.38618 13.6126 7.41457 13.5815 7.43351C13.5517 7.45162 13.5225 7.4705 13.4937 7.49015C13.4764 7.50237 13.4241 7.54999 13.3773 7.59601L13.2923 7.67965L13.2448 7.74916C13.2188 7.7874 13.1736 7.86708 13.1445 7.92631L13.0917 8.03396L13.0511 8.15044C13.0289 8.21453 12.9977 8.3194 12.982 8.38349L12.9534 8.50001L12.943 8.60545L12.9326 8.71089L12.9327 8.84957L12.9328 8.98826L12.9433 9.069L12.9538 9.14967L12.987 9.23268L13.0202 9.31569L13.0586 9.37569L13.097 9.43569L13.158 9.49581L13.2191 9.55588L13.2836 9.59005L13.3483 9.6241L13.4331 9.64772C13.4797 9.66065 13.5471 9.67553 13.5829 9.68071C13.6186 9.68596 13.7028 9.69082 13.77 9.69159H13.7699V9.69172ZM10.241 9.69165L10.3631 9.69303L10.4851 9.68189C10.5523 9.67578 10.6621 9.66301 10.7292 9.65351C10.7964 9.64407 10.9124 9.62289 10.987 9.6065L11.1226 9.57668L11.1294 9.52663C11.1331 9.49914 11.1484 9.41725 11.1633 9.34468L11.1904 9.21268L11.1844 9.20673L11.1784 9.20077L11.1369 9.22077C11.1141 9.23178 11.043 9.25809 10.979 9.27914L10.8626 9.31745L10.7404 9.34119L10.6183 9.36481L10.4241 9.36525L10.2299 9.36557L10.1633 9.34433C10.1267 9.33265 10.0728 9.31127 10.0436 9.29677L9.99052 9.27053L9.90287 9.19127L9.86867 9.13153L9.83446 9.07172L9.81302 8.99677L9.79158 8.92177L9.79145 8.78301L9.79129 8.64426L9.8103 8.52052L9.8294 8.39671L10.1634 8.38109L10.7807 8.38509L11.3979 8.38903L11.4166 8.30999C11.4268 8.2665 11.4425 8.17661 11.4514 8.11025L11.4676 7.98954L11.468 7.88804L11.4683 7.7865L11.4508 7.71069L11.4331 7.63492L11.4041 7.58474C11.3882 7.55716 11.3599 7.51716 11.3415 7.49585C11.3231 7.47457 11.2902 7.44455 11.2684 7.42916C11.2465 7.41377 11.2037 7.38788 11.1732 7.37165L11.1178 7.34215L11.0208 7.31879L10.9239 7.29546L10.8045 7.28404L10.685 7.27261L10.574 7.27985L10.4631 7.28705L10.3299 7.31261L10.1967 7.33821L10.1135 7.37146C10.0677 7.38973 9.99779 7.42314 9.95814 7.44564C9.91846 7.46813 9.86355 7.50474 9.83612 7.52698C9.8086 7.54925 9.76102 7.59252 9.73039 7.62314C9.69974 7.6538 9.65436 7.70877 9.62966 7.74541C9.60489 7.78205 9.56694 7.84695 9.54524 7.88967C9.52361 7.93242 9.49542 7.99233 9.48259 8.02285C9.46982 8.05335 9.44646 8.11578 9.43084 8.16154C9.41516 8.20733 9.39052 8.29473 9.37615 8.35578C9.35919 8.42973 9.34454 8.50417 9.33222 8.57901L9.31449 8.69133L9.31468 8.85645L9.31487 9.02157L9.33171 9.0937C9.34095 9.13338 9.35875 9.19332 9.3711 9.22689C9.38345 9.26045 9.40643 9.31037 9.42207 9.33789C9.43769 9.36532 9.4711 9.40951 9.49625 9.43613C9.52137 9.46269 9.56697 9.50308 9.5975 9.52577C9.62796 9.54845 9.6823 9.58045 9.71817 9.59677L9.78342 9.62647L9.87439 9.64849C9.92441 9.66061 9.99993 9.67492 10.0422 9.68036C10.0844 9.6858 10.1739 9.69092 10.241 9.69165V9.69165ZM10.45 8.12836C10.1428 8.12836 9.89142 8.12618 9.89142 8.12346C9.89142 8.12081 9.90454 8.08209 9.92057 8.03745C9.93657 7.99284 9.96473 7.92647 9.98306 7.88993L10.0165 7.82346L10.0899 7.75047L10.1633 7.67741L10.2354 7.64295C10.2751 7.62397 10.3275 7.6033 10.352 7.59703C10.3764 7.59076 10.4463 7.58244 10.5073 7.57857L10.6183 7.57143L10.7035 7.58241L10.7887 7.59335L10.8507 7.6217L10.9126 7.65005L10.9466 7.68669C10.9653 7.70682 10.9875 7.73649 10.9961 7.75258L11.0115 7.78189L11.0218 7.84692L11.0321 7.91194L11.0203 8.02013L11.0086 8.12836H10.45V8.12836ZM7.1479 10.6696L7.15462 10.652C7.15836 10.6424 7.16137 10.6197 7.16137 10.6016C7.16137 10.5836 7.16924 10.5178 7.17887 10.4556C7.18847 10.3932 7.211 10.2499 7.22899 10.137C7.24694 10.0241 7.27382 9.85425 7.28873 9.75969C7.30291 9.67005 7.31638 9.58036 7.32921 9.49057C7.33654 9.43713 7.34547 9.39345 7.34908 9.39345C7.35267 9.39345 7.36809 9.41706 7.38335 9.44589L7.41107 9.49834L7.47257 9.56036L7.53411 9.62237L7.60982 9.65268L7.68556 9.68298L7.7758 9.69466L7.86607 9.70634L7.9806 9.69933L8.09516 9.69226L8.21919 9.6602L8.34326 9.62807L8.40982 9.5977C8.44646 9.58103 8.51135 9.54452 8.55407 9.51671L8.63177 9.46615L8.70419 9.3937C8.74403 9.35396 8.80022 9.29009 8.82902 9.25181C8.85788 9.21364 8.88147 9.17956 8.88147 9.1762C8.88147 9.17277 8.89564 9.14913 8.91295 9.12356C8.93027 9.09805 8.96566 9.02717 8.99164 8.96618C9.01766 8.90519 9.05823 8.7953 9.08191 8.72205L9.12492 8.58887L9.14716 8.47354C9.15939 8.41012 9.17513 8.30525 9.18214 8.24049L9.19484 8.12282L9.18748 8.02295L9.18015 7.92308L9.15695 7.82317L9.13382 7.7233L9.09631 7.64855L9.05884 7.57377L8.98643 7.497L8.91404 7.42023L8.74271 7.33172L8.64838 7.30909L8.55404 7.28653L8.45971 7.27962L8.3654 7.27271L8.26035 7.28477L8.15523 7.29684L8.0695 7.31876L7.98374 7.34061L7.90921 7.37514C7.86825 7.39405 7.8086 7.42628 7.77673 7.44669C7.74483 7.46711 7.7119 7.49057 7.70358 7.49885C7.69529 7.50714 7.67535 7.52253 7.65935 7.53297L7.6302 7.55207L7.65055 7.45457C7.66179 7.40097 7.67113 7.35089 7.67139 7.34321L7.67183 7.32935H7.26492L7.22927 7.55409C7.20963 7.6777 7.17865 7.86868 7.16041 7.97857C7.12019 8.22093 7.07948 8.46321 7.0383 8.70541C7.02015 8.81217 6.99017 8.98199 6.97164 9.08273C6.95311 9.1834 6.92601 9.33073 6.91135 9.41009C6.89673 9.48941 6.86915 9.63921 6.85014 9.74295C6.82771 9.86506 6.80505 9.98714 6.78217 10.1092C6.76051 10.2239 6.73836 10.3386 6.7158 10.4532C6.69763 10.5447 6.68009 10.6309 6.67673 10.6446L6.67068 10.6695H7.1479V10.6696ZM7.84387 9.39217L7.78332 9.38141L7.72275 9.37073L7.66124 9.34266L7.59971 9.3146L7.55676 9.27354L7.51379 9.23255L7.48899 9.17706C7.47532 9.14657 7.45782 9.09469 7.45004 9.0618L7.4359 9.00212L7.44156 8.9065L7.44726 8.81089L7.47583 8.66106C7.4974 8.5465 7.51833 8.43181 7.53855 8.31706C7.55734 8.21025 7.58582 8.0537 7.60179 7.96925L7.63081 7.81565L7.69443 7.76273C7.72943 7.73364 7.78486 7.6946 7.81763 7.67604L7.87715 7.64225L7.95481 7.61821L8.03251 7.59415L8.23225 7.58244L8.31359 7.59978L8.39491 7.61709L8.45231 7.64353L8.50969 7.66996L8.55782 7.71834L8.60598 7.76673L8.6319 7.81796C8.6462 7.84615 8.66627 7.90129 8.67647 7.94052L8.69507 8.01185L8.68937 8.22273L8.68367 8.43357L8.65519 8.55821C8.63951 8.62679 8.60969 8.73165 8.58889 8.79121L8.5511 8.89965L8.50476 8.9874C8.47929 9.03572 8.44003 9.1009 8.4175 9.13233C8.39497 9.16375 8.35903 9.20458 8.33766 9.22289C8.31177 9.2449 8.28527 9.26615 8.25817 9.28663L8.2175 9.317L8.02915 9.38106L7.84387 9.39217V9.39217Z" fill="white"/>
</svg>
