<svg width="24" height="17" viewBox="0 0 24 17" fill="none" xmlns="http://www.w3.org/2000/svg">
<path d="M0 2.5C0 1.39543 0.895431 0.5 2 0.5H22C23.1046 0.5 24 1.39543 24 2.5V14.5C24 15.6046 23.1046 16.5 22 16.5H2C0.89543 16.5 0 15.6046 0 14.5V2.5Z" fill="#253647"/>
<path d="M14.504 3.76398L9.33948 3.78174L9.49597 13.2367L14.6605 13.2189L14.504 3.76398Z" fill="#FF5F00"/>
<path d="M9.67931 8.52808C9.64736 6.60503 10.5088 4.89632 11.8581 3.78797C10.8397 2.98875 9.56279 2.50815 8.17865 2.51289C4.89953 2.52412 2.29132 5.22548 2.34662 8.5532C2.40192 11.8809 5.09961 14.5641 8.37873 14.5529C9.76288 14.5481 11.0236 14.0588 12.0154 13.2527C10.6297 12.1705 9.71127 10.4511 9.67931 8.52808Z" fill="#EB001B"/>
<path d="M21.6532 8.44711C21.7085 11.7748 19.1003 14.4762 15.8212 14.4874C14.4371 14.4922 13.1602 14.0116 12.1417 13.2123C13.5075 12.1039 14.3525 10.3953 14.3205 8.47222C14.2886 6.54917 13.3704 4.84655 11.9844 3.74757C12.9762 2.94146 14.237 2.45217 15.6211 2.44743C18.9002 2.4362 21.5982 5.13611 21.6532 8.44711Z" fill="#F79E1B"/>
</svg>
