<svg width="24" height="17" viewBox="0 0 24 17" fill="none" xmlns="http://www.w3.org/2000/svg">
<path d="M0 2.5C0 1.39543 0.895431 0.5 2 0.5H22C23.1046 0.5 24 1.39543 24 2.5V14.5C24 15.6046 23.1046 16.5 22 16.5H2C0.89543 16.5 0 15.6046 0 14.5V2.5Z" fill="#FCFCFC"/>
<g clip-path="url(#clip0_7375_64809)">
<path d="M11.3585 8.24501L11.1163 9.55457C11.0096 10.0855 10.7141 10.4399 10.1104 10.4399C9.41757 10.4399 9.23467 9.97483 9.38676 9.32041C9.60179 8.39203 10.3016 8.11556 11.3585 8.24501V8.24501ZM12.4498 6.37282L11.7131 6.42356L11.4801 7.70587C11.1985 7.69511 11.1099 7.68543 10.7787 7.68543C9.74211 7.68543 8.8374 8.15697 8.59834 9.26322C8.38298 10.2606 8.90649 11.0346 10.0481 11.0346C11.2175 11.0346 11.7263 10.3743 11.9092 9.44592L12.4498 6.37282ZM4.45831 8.30095C3.37816 8.19445 2.44893 8.29144 2.43385 8.6884C2.41049 9.28437 4.21412 8.76442 4.17933 9.8608C4.12863 11.4716 1.62059 11.101 1 10.896L1.11265 10.4179C2.1827 10.6016 3.31156 10.6169 3.33624 9.97824C3.36275 9.29943 1.55167 9.90957 1.59408 8.81032C1.62573 7.99148 2.75773 7.54988 4.61056 7.84446L4.45831 8.30095ZM7.37075 9.39661C7.21485 10.069 6.72216 10.4912 6.13553 10.4912C5.52206 10.4912 5.24606 10.1064 5.41057 9.39661C5.56663 8.72426 6.06496 8.27298 6.65142 8.27298C7.23755 8.27298 7.52664 8.72426 7.37075 9.39661V9.39661ZM6.74601 7.72254C5.67183 7.72254 4.80837 8.3949 4.59598 9.39661C4.3831 10.3989 4.96161 11.0712 6.0353 11.0712C7.10899 11.0712 7.97278 10.3989 8.18517 9.39661C8.39805 8.39508 7.81987 7.72254 6.74601 7.72254ZM19.157 11.0542H18.2233C17.657 10.4781 16.5739 9.15421 15.7764 7.7532H16.4616C17.2189 8.88419 19.157 11.0542 19.157 11.0542ZM20.1354 4.49758L20.5652 3.52832L20.6878 4.51372L21.5637 4.18203L20.9515 5.03152L21.6155 5.58823L20.7294 5.66228L20.6805 6.68712L20.1878 5.92978L19.4638 6.65234L19.7352 5.63413L18.8812 5.5088L19.7123 4.99638L19.3714 4.11927L20.1354 4.49758ZM21.9563 9.40683C21.7979 10.0898 21.2976 10.5186 20.7019 10.5186C20.0789 10.5186 19.7981 10.1278 19.9655 9.40683C20.1238 8.7239 20.63 8.26545 21.2255 8.26545C21.8216 8.26545 22.115 8.7239 21.9563 9.40683ZM21.3218 7.70569C20.2309 7.70569 19.354 8.38916 19.1378 9.40683C18.9218 10.4247 19.5092 11.1078 20.6 11.1078C21.6909 11.1078 22.5681 10.4247 22.7838 9.40683C23 8.38916 22.4127 7.70569 21.3216 7.70569" fill="#2B3797"/>
<path d="M15.0687 10.7729C16.8323 9.71271 18.3642 8.08365 19.4506 6.67529C18.6695 9.32131 16.7892 10.7453 15.0687 10.7729Z" fill="#ED1C24"/>
<path d="M14.3708 8.21331C14.7086 8.21331 14.8925 8.34599 14.8925 8.59951C14.8925 9.2724 13.6804 9.22794 13.1458 9.11014C13.3339 8.60632 13.7585 8.21331 14.3708 8.21331ZM15.6189 8.56294C15.6189 8.0749 15.2596 7.71631 14.4443 7.71631C13.122 7.71631 12.2628 8.64523 12.2628 9.79522C12.2628 10.5379 12.8325 11.1552 13.8731 11.1552C14.5901 11.1552 15.0689 10.7727 15.0689 10.7727C14.1564 10.8785 13.0358 10.7727 13.0358 9.71633C13.0358 9.67438 13.038 9.63242 13.0411 9.59065C14.2861 9.87035 15.6189 9.53184 15.6189 8.56276" fill="#2B3797"/>
</g>
<defs>
<clipPath id="clip0_7375_64809">
<rect width="22" height="8" fill="white" transform="translate(1 3.5)"/>
</clipPath>
</defs>
</svg>
