<svg width="117" height="23" viewBox="0 0 117 23" fill="none" xmlns="http://www.w3.org/2000/svg">
<path d="M28.8657 16.9337C28.0642 16.9337 27.423 16.7182 26.9421 16.2873C26.4612 15.8564 26.2208 15.2843 26.2208 14.5711C26.2208 13.9767 26.3811 13.4789 26.7017 13.0777C27.0368 12.6765 27.474 12.3719 28.0132 12.1639C28.5524 11.941 29.128 11.8147 29.7401 11.785L31.8166 11.6735V12.7434L30.4833 12.8326C29.9732 12.8474 29.6235 12.9886 29.434 13.256C29.2446 13.5235 29.1499 13.8504 29.1499 14.2367C29.1499 14.6082 29.2227 14.8831 29.3684 15.0614C29.5142 15.2397 29.7546 15.3289 30.0898 15.3289C30.425 15.3289 30.7383 15.262 31.0297 15.1283C31.3212 14.9797 31.5616 14.7865 31.7511 14.5488L31.9697 15.1729C31.6928 15.7375 31.2847 16.1759 30.7456 16.4879C30.2064 16.7851 29.5798 16.9337 28.8657 16.9337ZM26.4831 9.3778C26.7454 8.67942 27.2044 8.12963 27.8602 7.72843C28.5305 7.31238 29.4049 7.10435 30.4833 7.10435C31.7802 7.10435 32.7129 7.40896 33.2812 8.01819C33.8495 8.61255 34.1337 9.5041 34.1337 10.6928V14.9054C34.1337 15.2026 34.2721 15.366 34.549 15.3958L35.3359 15.5072V16.5994C35.1173 16.6588 34.8259 16.7257 34.4616 16.7999C34.1118 16.8742 33.7767 16.9114 33.4561 16.9114C32.9023 16.9114 32.4433 16.7925 32.079 16.5548C31.7146 16.3022 31.4742 15.8564 31.3576 15.2174V10.7374C31.3576 10.0836 31.2046 9.63041 30.8986 9.3778C30.6071 9.12519 30.1845 8.99889 29.6308 8.99889C29.1499 8.99889 28.6981 9.08062 28.2755 9.24407C27.8675 9.39266 27.4886 9.63041 27.1388 9.95731L26.4831 9.3778Z" fill="black"/>
<path d="M39.7531 10.0019C40.0155 9.40752 40.3069 8.89488 40.6275 8.46396C40.9627 8.01819 41.3197 7.67643 41.6986 7.43868C42.0921 7.20093 42.5001 7.08206 42.9227 7.08206C43.0976 7.08206 43.3162 7.11178 43.5785 7.17122C43.8408 7.21579 44.0448 7.27523 44.1905 7.34953C44.2488 7.81016 44.2561 8.36738 44.2124 9.02118C44.1686 9.67498 44.0812 10.3065 43.9501 10.9157H42.7041L42.4199 9.9796C42.3616 9.77157 42.2815 9.63784 42.1795 9.5784C42.0921 9.51896 41.9536 9.48924 41.7642 9.48924C41.531 9.48924 41.2541 9.55611 40.9335 9.68984C40.6129 9.82357 40.3069 10.0613 40.0155 10.4031L39.7531 10.0019ZM40.3871 9.95731V14.9723C40.3871 15.2397 40.5182 15.3958 40.7805 15.4403L42.1139 15.5964V16.7554H36.2776V15.5964L37.1301 15.4403C37.3778 15.3958 37.5017 15.2397 37.5017 14.9723V9.44467C37.5017 9.1772 37.3851 9.02118 37.1519 8.9766L36.1901 8.776V7.57241C36.7002 7.42382 37.2467 7.31238 37.8296 7.23808C38.427 7.16379 38.9735 7.11921 39.469 7.10435L39.928 7.46097L40.3871 9.95731Z" fill="black"/>
<path d="M48.5937 16.9337C47.9088 16.9337 47.2895 16.7702 46.7357 16.4433C46.1965 16.1164 45.7739 15.6186 45.4679 14.95C45.1619 14.2665 45.0089 13.3823 45.0089 12.2976C45.0089 11.1683 45.191 10.2248 45.5553 9.46695C45.9196 8.69428 46.4515 8.10734 47.151 7.70614C47.8505 7.30495 48.703 7.10435 49.7085 7.10435C50 7.10435 50.2987 7.12664 50.6047 7.17122C50.9253 7.21579 51.1731 7.27523 51.3479 7.34953L51.1294 8.73143C51.0128 8.61255 50.8379 8.5234 50.6047 8.46396C50.3861 8.38967 50.1603 8.35252 49.9271 8.35252C49.5482 8.35252 49.2131 8.46396 48.9216 8.68685C48.6447 8.89488 48.4261 9.26636 48.2658 9.80129C48.1201 10.3214 48.04 11.042 48.0254 11.9633C48.0254 12.7805 48.0837 13.4418 48.2003 13.947C48.3168 14.4373 48.4917 14.794 48.7249 15.0168C48.9726 15.2397 49.2641 15.3512 49.5992 15.3512C49.8907 15.3512 50.1967 15.2992 50.5173 15.1952C50.8379 15.0911 51.0929 14.9426 51.2824 14.7494L51.5884 15.1506C51.2824 15.6855 50.8743 16.1164 50.3643 16.4433C49.8688 16.7702 49.2786 16.9337 48.5937 16.9337ZM53.7524 2.53516V14.9054C53.7524 15.0837 53.7889 15.21 53.8617 15.2843C53.9346 15.3438 54.0293 15.3809 54.1459 15.3958L54.9328 15.5072V16.5994C54.7434 16.6588 54.4592 16.7257 54.0803 16.7999C53.716 16.8742 53.359 16.9114 53.0092 16.9114C52.4263 16.9114 51.9527 16.7628 51.5884 16.4656C51.2386 16.1684 51.0055 15.7227 50.8889 15.1283V4.45199C50.8889 4.18452 50.765 4.0285 50.5173 3.98393L49.4681 3.8279V2.69118C50.051 2.52773 50.6995 2.40143 51.4135 2.31227C52.1422 2.22312 52.7906 2.17111 53.359 2.15625L53.7524 2.53516Z" fill="black"/>
<path d="M58.5161 16.9337C57.7146 16.9337 57.0734 16.7182 56.5925 16.2873C56.1117 15.8564 55.8712 15.2843 55.8712 14.5711C55.8712 13.9767 56.0315 13.4789 56.3521 13.0777C56.6873 12.6765 57.1244 12.3719 57.6636 12.1639C58.2028 11.941 58.7784 11.8147 59.3905 11.785L61.4671 11.6735V12.7434L60.1337 12.8326C59.6236 12.8474 59.2739 12.9886 59.0845 13.256C58.895 13.5235 58.8003 13.8504 58.8003 14.2367C58.8003 14.6082 58.8732 14.8831 59.0189 15.0614C59.1646 15.2397 59.4051 15.3289 59.7402 15.3289C60.0754 15.3289 60.3887 15.262 60.6802 15.1283C60.9716 14.9797 61.2121 14.7865 61.4015 14.5488L61.6201 15.1729C61.3432 15.7375 60.9352 16.1759 60.396 16.4879C59.8568 16.7851 59.2302 16.9337 58.5161 16.9337ZM56.1335 9.3778C56.3958 8.67942 56.8549 8.12963 57.5106 7.72843C58.181 7.31238 59.0553 7.10435 60.1337 7.10435C61.4307 7.10435 62.3633 7.40896 62.9316 8.01819C63.5 8.61255 63.7841 9.5041 63.7841 10.6928V14.9054C63.7841 15.2026 63.9226 15.366 64.1995 15.3958L64.9864 15.5072V16.5994C64.7678 16.6588 64.4763 16.7257 64.112 16.7999C63.7623 16.8742 63.4271 16.9114 63.1065 16.9114C62.5527 16.9114 62.0937 16.7925 61.7294 16.5548C61.3651 16.3022 61.1246 15.8564 61.008 15.2174V10.7374C61.008 10.0836 60.855 9.63041 60.549 9.3778C60.2576 9.12519 59.835 8.99889 59.2812 8.99889C58.8003 8.99889 58.3485 9.08062 57.9259 9.24407C57.5179 9.39266 57.139 9.63041 56.7893 9.95731L56.1335 9.3778Z" fill="black"/>
<path d="M65.7531 20.7673V19.6306L66.6275 19.4523C66.8607 19.4077 66.9772 19.2591 66.9772 19.0065V9.46695C66.9772 9.19949 66.868 9.04347 66.6494 8.99889L65.6657 8.79829V7.5947C66.1903 7.46097 66.7659 7.34953 67.3926 7.26037C68.0338 7.17122 68.6167 7.12664 69.1413 7.12664L69.5566 7.48326L69.8626 8.9766V19.0065C69.8626 19.274 69.9865 19.4226 70.2342 19.4523L71.4802 19.6306V20.7673H65.7531ZM70.7807 16.9337C70.5621 16.9337 70.3217 16.9188 70.0594 16.8891C69.8116 16.8594 69.5566 16.8074 69.2943 16.7331L69.4254 15.2843C69.6003 15.4923 69.8043 15.6335 70.0375 15.7078C70.2852 15.7672 70.533 15.797 70.7807 15.797C71.349 15.797 71.8008 15.5295 72.1359 14.9946C72.4857 14.4596 72.6606 13.4715 72.6606 12.0302C72.6751 10.886 72.544 10.0688 72.2671 9.5784C72.0048 9.07319 71.5895 8.82058 71.0211 8.82058C70.686 8.82058 70.3799 8.88002 70.1031 8.99889C69.8262 9.11776 69.6295 9.24407 69.5129 9.3778L69.2724 8.86516C69.6076 8.34509 70.0156 7.9216 70.4965 7.5947C70.992 7.2678 71.5968 7.10435 72.3108 7.10435C72.952 7.10435 73.5276 7.2678 74.0377 7.5947C74.5477 7.90674 74.9485 8.3971 75.2399 9.06576C75.5459 9.71956 75.699 10.5591 75.699 11.5844C75.699 13.3378 75.2545 14.6677 74.3656 15.5741C73.4766 16.4805 72.2817 16.9337 70.7807 16.9337Z" fill="black"/>
<path d="M81.0737 14.9723C81.0737 15.2397 81.1976 15.3958 81.4453 15.4403L82.2978 15.5964V16.7554H76.9642V15.5964L77.8167 15.4403C78.0644 15.3958 78.1883 15.2397 78.1883 14.9723V9.46695C78.1883 9.19949 78.0717 9.04347 77.8386 8.99889L76.8768 8.79829V7.5947C77.4451 7.43125 78.079 7.31238 78.7785 7.23808C79.478 7.16379 80.1119 7.12664 80.6802 7.12664L81.0737 7.48326V14.9723ZM81.0518 4.56343C81.0518 5.00921 80.9061 5.36583 80.6147 5.63329C80.3378 5.90076 79.9662 6.03449 79.4998 6.03449C79.0189 6.03449 78.6328 5.90076 78.3413 5.63329C78.0644 5.36583 77.926 5.00921 77.926 4.56343C77.926 4.11766 78.0644 3.76847 78.3413 3.51586C78.6328 3.2484 79.0189 3.11467 79.4998 3.11467C79.9662 3.11467 80.3378 3.2484 80.6147 3.51586C80.9061 3.76847 81.0518 4.11766 81.0518 4.56343Z" fill="black"/>
<path d="M89.4023 12.1639C89.4023 11.2278 89.3586 10.4774 89.2711 9.91273C89.1837 9.34808 89.0234 8.94688 88.7902 8.70914C88.5716 8.45653 88.2656 8.33023 87.8722 8.33023C87.3913 8.33023 87.0269 8.59026 86.7792 9.11033C86.5461 9.6304 86.4295 10.5665 86.4295 11.9187C86.4295 12.8548 86.4732 13.6052 86.5606 14.1699C86.6626 14.7345 86.8229 15.1432 87.0415 15.3958C87.2601 15.6484 87.5661 15.7747 87.9596 15.7747C88.4405 15.7747 88.7975 15.5146 89.0307 14.9946C89.2784 14.4596 89.4023 13.5161 89.4023 12.1639ZM83.3255 12.1416C83.3255 10.9083 83.5295 9.92759 83.9376 9.19949C84.3602 8.45653 84.9285 7.9216 85.6425 7.5947C86.3566 7.2678 87.1581 7.10435 88.047 7.10435C88.9797 7.10435 89.7739 7.28266 90.4296 7.63928C91.0854 7.98104 91.5882 8.50854 91.9379 9.22178C92.3022 9.93502 92.4844 10.8414 92.4844 11.941C92.4844 13.1892 92.2804 14.1847 91.8723 14.9277C91.4643 15.6558 90.9033 16.1833 90.1892 16.5102C89.4897 16.8222 88.6882 16.9783 87.7847 16.9783C86.8666 16.9783 86.0724 16.8074 85.4021 16.4656C84.7318 16.109 84.2144 15.5741 83.8501 14.8608C83.5004 14.1476 83.3255 13.2412 83.3255 12.1416Z" fill="black"/>
<path d="M96.9829 15.3958C96.9829 15.8564 96.8372 16.2204 96.5457 16.4879C96.2543 16.7554 95.8608 16.8891 95.3653 16.8891C94.8844 16.8891 94.4983 16.7554 94.2068 16.4879C93.9154 16.2204 93.7696 15.8564 93.7696 15.3958C93.7696 14.9351 93.9154 14.5711 94.2068 14.3036C94.4983 14.0361 94.8844 13.9024 95.3653 13.9024C95.8608 13.9024 96.2543 14.0361 96.5457 14.3036C96.8372 14.5711 96.9829 14.9351 96.9829 15.3958Z" fill="black"/>
<path d="M101.105 16.956C100.303 16.956 99.6474 16.6291 99.1374 15.9753C98.6273 15.3215 98.3796 14.4002 98.3942 13.2115C98.4087 12.097 98.6346 11.0866 99.0718 10.1802C99.509 9.25893 100.106 8.53083 100.864 7.9959C101.622 7.44611 102.489 7.17122 103.465 7.17122C103.932 7.17122 104.391 7.22322 104.843 7.32724C105.294 7.41639 105.688 7.52041 106.023 7.63928L105.236 9.1772C104.959 8.96917 104.682 8.79829 104.405 8.66456C104.143 8.53083 103.822 8.46396 103.444 8.46396C103.079 8.46396 102.766 8.58284 102.504 8.82058C102.241 9.04347 102.023 9.35551 101.848 9.75671C101.673 10.1579 101.542 10.6111 101.454 11.1163C101.367 11.6215 101.323 12.149 101.323 12.6988C101.309 13.4418 101.382 14.0139 101.542 14.4151C101.702 14.8014 101.913 14.9946 102.176 14.9946C102.365 14.9946 102.555 14.9203 102.744 14.7717C102.948 14.6231 103.159 14.3928 103.378 14.0807C103.597 13.7687 103.808 13.3823 104.012 12.9217L104.34 13.0777C104.121 14.3556 103.713 15.3215 103.116 15.9753C102.533 16.6291 101.862 16.956 101.105 16.956ZM105.389 16.9114C104.879 16.9114 104.515 16.7777 104.296 16.5102C104.077 16.2279 103.954 15.8267 103.924 15.3066C103.91 15.1134 103.903 14.8534 103.903 14.5265C103.903 14.1996 103.903 13.9247 103.903 13.7018L104.58 8.28565L106.897 7.05977L107.422 7.50555L106.701 13.4566C106.686 13.6349 106.664 13.8281 106.635 14.0361C106.62 14.2293 106.613 14.3853 106.613 14.5042C106.613 14.7717 106.701 14.9054 106.875 14.9054C106.977 14.9054 107.116 14.8683 107.291 14.794C107.48 14.7048 107.742 14.5636 108.078 14.3705L108.559 15.4403C108.063 15.901 107.531 16.265 106.963 16.5325C106.409 16.7851 105.884 16.9114 105.389 16.9114Z" fill="black"/>
<path d="M113.475 9.66755L112.951 13.4566C112.922 13.6647 112.892 13.8653 112.863 14.0584C112.849 14.2367 112.841 14.4076 112.841 14.5711C112.841 14.794 112.929 14.9054 113.104 14.9054C113.22 14.9054 113.373 14.8608 113.563 14.7717C113.767 14.6825 114.014 14.5488 114.306 14.3705L114.787 15.418C114.306 15.8935 113.774 16.265 113.191 16.5325C112.608 16.7851 112.025 16.9114 111.442 16.9114C110.451 16.9114 109.956 16.3988 109.956 15.3735C109.956 15.106 109.978 14.7865 110.022 14.4151C110.065 14.0436 110.116 13.6944 110.175 13.3675L110.59 10.7151C110.619 10.5517 110.641 10.3436 110.655 10.091C110.685 9.82358 110.699 9.63041 110.699 9.51153C110.699 9.27379 110.641 9.11033 110.524 9.02118C110.408 8.91717 110.233 8.86516 110 8.86516H109.344L109.475 7.75072C110.014 7.54269 110.481 7.3941 110.874 7.30495C111.282 7.21579 111.683 7.17122 112.076 7.17122C112.63 7.17122 113.016 7.28266 113.235 7.50555C113.468 7.72843 113.585 8.0479 113.585 8.46396C113.585 8.62741 113.57 8.82058 113.541 9.04347C113.526 9.26636 113.504 9.47438 113.475 9.66755Z" fill="black"/>
<path d="M110.579 5.1434C110.854 5.37915 111.201 5.49703 111.62 5.49703C112.125 5.49703 112.537 5.34231 112.855 5.03289C113.188 4.72346 113.354 4.34037 113.354 3.8836C113.354 3.5005 113.216 3.19107 112.942 2.95532C112.682 2.70483 112.342 2.57959 111.923 2.57959C111.417 2.57959 110.998 2.7343 110.666 3.04373C110.348 3.35315 110.189 3.72888 110.189 4.17092C110.189 4.56875 110.319 4.89291 110.579 5.1434Z" fill="black"/>
<path d="M23.6758 4.83428C23.0798 3.64908 22.1305 2.68715 20.9645 2.0868C19.6378 1.40088 17.9 1.40088 14.4244 1.40088H1.72177C1.71377 1.40137 1.70603 1.404 1.69934 1.4085C1.6923 1.41449 1.68711 1.42243 1.6844 1.43136C1.68315 1.43966 1.68379 1.44813 1.68626 1.45613C1.69029 1.46377 1.69605 1.47031 1.70308 1.47519C4.36955 2.89656 4.5153 5.66691 4.49662 7.82565V11.461C4.49662 14.9821 4.49662 16.7445 5.17304 18.0877C5.76952 19.2731 6.71861 20.2355 7.88436 20.8371C8.54958 21.1801 9.3157 21.3497 10.349 21.4354C11.3842 21.5211 12.6866 21.5211 14.4244 21.5211C17.9 21.5211 19.6378 21.5211 20.9645 20.8371C22.1302 20.2355 23.0793 19.2731 23.6758 18.0877C24.014 17.4152 24.1822 16.6397 24.2681 15.5918C24.3522 14.5419 24.3522 13.2215 24.3522 11.461C24.3522 7.93996 24.3522 6.17944 23.6758 4.83428ZM17.7542 17.4228C16.9171 17.9487 15.8402 18.2116 14.5234 18.2116C13.1893 18.2116 12.093 17.929 11.2347 17.3637C10.383 16.7843 9.71745 15.9619 9.3213 14.9992C8.91075 13.9488 8.70755 12.826 8.72336 11.6954C8.72336 10.1806 8.99243 8.91803 9.53059 7.90757C10.0471 6.91963 10.8373 6.10856 11.8028 5.57545C12.8073 5.03876 13.9277 4.76755 15.0616 4.78665C15.8373 4.78666 16.6104 4.87809 17.3656 5.05911C18.0214 5.20381 18.655 5.43839 19.2491 5.75646C19.3089 6.49256 19.3089 7.23244 19.2491 7.96854C19.2115 8.68033 19.1316 9.38914 19.0099 10.0911H17.0965L16.4686 7.87898C16.4088 7.67321 16.3378 7.47125 16.2594 7.27119C16.2076 7.14227 16.1255 7.02839 16.0202 6.93966C15.8834 6.82816 15.7326 6.73588 15.5717 6.66529C15.3822 6.583 15.1779 6.54211 14.9719 6.54525C14.4151 6.54525 13.9367 6.89838 13.5368 7.60462C13.1388 8.29245 12.9395 9.47439 12.9389 11.1504C12.9389 12.6861 13.1581 13.8477 13.5966 14.6353C14.0357 15.4031 14.7738 15.7867 15.8109 15.7861C16.3859 15.7996 16.9569 15.6865 17.4852 15.4546C17.8785 15.2654 18.2496 15.0314 18.5914 14.7572L19.4285 15.4241C19.1688 16.2319 18.6107 16.8982 17.7542 17.4228Z" fill="black"/>
</svg>
