<svg width="94" height="17" viewBox="0 0 94 17" fill="none" xmlns="http://www.w3.org/2000/svg">
<g clip-path="url(#clip0_7602_68603)">
<path d="M23.3679 12.7232C22.7271 12.7232 22.2144 12.5616 21.83 12.2384C21.4455 11.9152 21.2532 11.4862 21.2532 10.9512C21.2532 10.5055 21.3814 10.1321 21.6377 9.83124C21.9057 9.53034 22.2552 9.30188 22.6863 9.14586C23.1174 8.9787 23.5776 8.88397 24.0669 8.86168L25.7272 8.7781L25.7272 9.58049L24.6611 9.64736C24.2534 9.6585 23.9737 9.76437 23.8223 9.96497C23.6708 10.1656 23.5951 10.4107 23.5951 10.7005C23.5951 10.9791 23.6533 11.1853 23.7698 11.319C23.8863 11.4527 24.0786 11.5196 24.3466 11.5196C24.6145 11.5196 24.865 11.4695 25.098 11.3692C25.3311 11.2577 25.5233 11.1128 25.6748 10.9345L25.8495 11.4026C25.6282 11.8261 25.3019 12.1548 24.8709 12.3889C24.4398 12.6118 23.9388 12.7232 23.3679 12.7232ZM21.463 7.05629C21.6727 6.53251 22.0397 6.12017 22.564 5.81927C23.0999 5.50723 23.799 5.35121 24.6611 5.35121C25.6981 5.35121 26.4437 5.57967 26.8981 6.03659C27.3525 6.48236 27.5797 7.15102 27.5797 8.04257L27.5797 11.202C27.5797 11.4249 27.6904 11.5475 27.9117 11.5698L28.5409 11.6533L28.5409 12.4725C28.3661 12.517 28.1331 12.5672 27.8418 12.6229C27.5622 12.6786 27.2942 12.7065 27.0379 12.7065C26.5952 12.7065 26.2282 12.6173 25.9369 12.439C25.6456 12.2496 25.4534 11.9152 25.3602 11.436L25.3602 8.076C25.3602 7.58565 25.2379 7.24575 24.9932 7.05629C24.7602 6.86684 24.4223 6.77211 23.9796 6.77211C23.5951 6.77211 23.2339 6.83341 22.896 6.95599C22.5698 7.06744 22.2669 7.24575 21.9872 7.49092L21.463 7.05629Z" fill="white"/>
<path d="M32.0725 7.52436C32.2822 7.07858 32.5152 6.6941 32.7716 6.37092C33.0395 6.03659 33.325 5.78027 33.6279 5.60196C33.9425 5.42365 34.2687 5.33449 34.6066 5.33449C34.7464 5.33449 34.9212 5.35678 35.1309 5.40136C35.3406 5.43479 35.5037 5.47937 35.6202 5.53509C35.6668 5.88056 35.6726 6.29848 35.6377 6.78883C35.6027 7.27918 35.5328 7.75282 35.428 8.20974L34.4318 8.20974L34.2046 7.50764C34.158 7.35162 34.0939 7.25132 34.0124 7.20674C33.9425 7.16217 33.8318 7.13988 33.6803 7.13988C33.4939 7.13988 33.2725 7.19003 33.0162 7.29033C32.7599 7.39062 32.5152 7.56893 32.2822 7.82526L32.0725 7.52436ZM32.5793 7.49092L32.5793 11.2521C32.5793 11.4527 32.6842 11.5698 32.8939 11.6032L33.9599 11.7202L33.9599 12.5895L29.2937 12.5895L29.2937 11.7202L29.9753 11.6032C30.1734 11.5698 30.2724 11.4527 30.2724 11.2521L30.2724 7.10644C30.2724 6.90585 30.1792 6.78883 29.9928 6.7554L29.2238 6.60495L29.2238 5.70225C29.6316 5.59081 30.0685 5.50723 30.5346 5.45151C31.0123 5.39579 31.4492 5.36235 31.8453 5.35121L32.2123 5.61867L32.5793 7.49092Z" fill="white"/>
<path d="M39.1406 12.7232C38.593 12.7232 38.0979 12.6006 37.6551 12.3554C37.224 12.1103 36.8862 11.7369 36.6415 11.2354C36.3968 10.7228 36.2745 10.0597 36.2745 9.24616C36.2745 8.39919 36.4201 7.69152 36.7114 7.12316C37.0027 6.54365 37.4279 6.10345 37.9872 5.80255C38.5464 5.50166 39.228 5.35121 40.0319 5.35121C40.2649 5.35121 40.5038 5.36792 40.7484 5.40136C41.0048 5.43479 41.2028 5.47937 41.3426 5.53509L41.1679 6.57151C41.0747 6.48236 40.9349 6.41549 40.7484 6.37092C40.5737 6.31519 40.3931 6.28733 40.2067 6.28733C39.9037 6.28733 39.6358 6.37092 39.4028 6.53808C39.1814 6.6941 39.0066 6.97271 38.8785 7.37391C38.762 7.76396 38.6979 8.30446 38.6862 8.99541C38.6862 9.60835 38.7328 10.1043 38.826 10.4832C38.9192 10.8509 39.0591 11.1184 39.2455 11.2856C39.4435 11.4527 39.6766 11.5363 39.9445 11.5363C40.1775 11.5363 40.4222 11.4973 40.6785 11.4193C40.9349 11.3413 41.1387 11.2299 41.2902 11.085L41.5349 11.3859C41.2902 11.7871 40.964 12.1103 40.5562 12.3554C40.1601 12.6006 39.6882 12.7232 39.1406 12.7232ZM43.265 1.92432L43.265 11.202C43.265 11.3357 43.2942 11.4305 43.3524 11.4862C43.4107 11.5308 43.4864 11.5586 43.5796 11.5698L44.2088 11.6533L44.2088 12.4725C44.0573 12.517 43.8301 12.5672 43.5272 12.6229C43.2359 12.6786 42.9505 12.7065 42.6708 12.7065C42.2048 12.7065 41.8262 12.595 41.5349 12.3722C41.2553 12.1493 41.0688 11.8149 40.9756 11.3692L40.9756 3.36194C40.9756 3.16134 40.8766 3.04433 40.6785 3.01089L39.8397 2.89388L39.8397 2.04133C40.3057 1.91875 40.8242 1.82402 41.3951 1.75715C41.9776 1.69029 42.4961 1.65128 42.9505 1.64014L43.265 1.92432Z" fill="white"/>
<path d="M47.0737 12.7232C46.4329 12.7232 45.9202 12.5616 45.5357 12.2384C45.1513 11.9152 44.959 11.4862 44.959 10.9512C44.959 10.5055 45.0872 10.1321 45.3435 9.83124C45.6115 9.53034 45.961 9.30188 46.3921 9.14586C46.8232 8.9787 47.2834 8.88397 47.7727 8.86168L49.433 8.7781L49.433 9.58049L48.3669 9.64736C47.9591 9.6585 47.6795 9.76437 47.5281 9.96497C47.3766 10.1656 47.3009 10.4107 47.3009 10.7005C47.3009 10.9791 47.3591 11.1853 47.4756 11.319C47.5921 11.4527 47.7844 11.5196 48.0524 11.5196C48.3203 11.5196 48.5708 11.4695 48.8038 11.3692C49.0369 11.2577 49.2291 11.1128 49.3806 10.9345L49.5553 11.4026C49.334 11.8261 49.0077 12.1548 48.5766 12.3889C48.1456 12.6118 47.6446 12.7232 47.0737 12.7232ZM45.1687 7.05629C45.3785 6.53251 45.7455 6.12017 46.2698 5.81927C46.8057 5.50723 47.5048 5.35121 48.3669 5.35121C49.4039 5.35121 50.1495 5.57967 50.6039 6.03659C51.0583 6.48236 51.2855 7.15102 51.2855 8.04257L51.2855 11.202C51.2855 11.4249 51.3962 11.5475 51.6175 11.5698L52.2467 11.6533L52.2467 12.4725C52.0719 12.517 51.8389 12.5672 51.5476 12.6229C51.268 12.6786 51 12.7065 50.7437 12.7065C50.301 12.7065 49.934 12.6173 49.6427 12.439C49.3514 12.2496 49.1592 11.9152 49.066 11.436L49.066 8.076C49.066 7.58565 48.9436 7.24575 48.699 7.05629C48.466 6.86684 48.1281 6.77211 47.6853 6.77211C47.3009 6.77211 46.9397 6.83341 46.6018 6.956C46.2756 7.06744 45.9727 7.24575 45.693 7.49092L45.1687 7.05629Z" fill="white"/>
<path d="M52.8597 15.5984L52.8597 14.7459L53.5588 14.6122C53.7452 14.5787 53.8384 14.4673 53.8384 14.2778L53.8384 7.12316C53.8384 6.92256 53.751 6.80555 53.5763 6.77211L52.7898 6.62166L52.7898 5.71897C53.2093 5.61867 53.6695 5.53509 54.1705 5.46822C54.6831 5.40136 55.1491 5.36793 55.5686 5.36793L55.9006 5.63539L56.1453 6.7554L56.1453 14.2778C56.1453 14.4784 56.2443 14.5899 56.4424 14.6122L57.4385 14.7459L57.4385 15.5984L52.8597 15.5984ZM56.8793 12.7232C56.7045 12.7232 56.5123 12.7121 56.3026 12.6898C56.1045 12.6675 55.9006 12.6285 55.6909 12.5728L55.7958 11.4862C55.9356 11.6422 56.0987 11.7481 56.2851 11.8038C56.4832 11.8484 56.6812 11.8707 56.8793 11.8707C57.3337 11.8707 57.6949 11.6701 57.9628 11.2689C58.2425 10.8677 58.3823 10.1266 58.3823 9.04556C58.3939 8.18745 58.2891 7.57451 58.0677 7.20674C57.858 6.82784 57.5259 6.63838 57.0715 6.63838C56.8036 6.63838 56.5589 6.68296 56.3375 6.77211C56.1162 6.86127 55.9589 6.956 55.8657 7.0563L55.6734 6.67181C55.9414 6.28176 56.2676 5.96415 56.6521 5.71897C57.0482 5.4738 57.5318 5.35121 58.1026 5.35121C58.6153 5.35121 59.0755 5.4738 59.4833 5.71897C59.8911 5.953 60.2115 6.32077 60.4445 6.82226C60.6892 7.31262 60.8115 7.94227 60.8115 8.71123C60.8115 10.0263 60.4561 11.0237 59.7454 11.7035C59.0347 12.3833 58.0793 12.7232 56.8793 12.7232Z" fill="white"/>
<path d="M65.1086 11.2521C65.1086 11.4527 65.2077 11.5698 65.4057 11.6032L66.0873 11.7202L66.0873 12.5895L61.8231 12.5895L61.8231 11.7202L62.5047 11.6032C62.7027 11.5698 62.8018 11.4527 62.8018 11.2521L62.8018 7.12316C62.8018 6.92256 62.7085 6.80555 62.5221 6.77211L61.7532 6.62167L61.7532 5.71897C62.2076 5.59639 62.7144 5.50723 63.2736 5.45151C63.8329 5.39579 64.3397 5.36793 64.7941 5.36793L65.1086 5.63539L65.1086 11.2521ZM65.0912 3.44552C65.0912 3.77986 64.9747 4.04732 64.7416 4.24792C64.5203 4.44852 64.2232 4.54882 63.8503 4.54882C63.4659 4.54882 63.1571 4.44852 62.9241 4.24792C62.7027 4.04732 62.592 3.77986 62.592 3.44552C62.592 3.11119 62.7027 2.8493 62.9241 2.65985C63.1571 2.45925 63.4659 2.35895 63.8503 2.35895C64.2232 2.35895 64.5203 2.45925 64.7416 2.65985C64.9747 2.8493 65.0912 3.11119 65.0912 3.44552Z" fill="white"/>
<path d="M71.7674 9.14586C71.7674 8.44377 71.7325 7.88098 71.6626 7.45749C71.5927 7.03401 71.4645 6.73311 71.2781 6.5548C71.1033 6.36535 70.8586 6.27062 70.5441 6.27062C70.1596 6.27062 69.8683 6.46564 69.6703 6.8557C69.4838 7.24575 69.3906 7.94785 69.3906 8.96198C69.3906 9.66408 69.4256 10.2269 69.4955 10.6504C69.577 11.0738 69.7052 11.3803 69.88 11.5698C70.0547 11.7592 70.2994 11.8539 70.614 11.8539C70.9985 11.8539 71.2839 11.6589 71.4703 11.2689C71.6684 10.8677 71.7674 10.16 71.7674 9.14586ZM66.909 9.12915C66.909 8.20416 67.0721 7.46864 67.3983 6.92256C67.7362 6.36535 68.1906 5.96415 68.7615 5.71897C69.3324 5.4738 69.9732 5.35121 70.6839 5.35121C71.4295 5.35121 72.0645 5.48494 72.5888 5.75241C73.1131 6.00873 73.5151 6.40435 73.7947 6.93928C74.086 7.47421 74.2316 8.15402 74.2316 8.9787C74.2316 9.91482 74.0685 10.6615 73.7423 11.2187C73.416 11.7648 72.9675 12.1604 72.3966 12.4056C71.8373 12.6396 71.1965 12.7566 70.4742 12.7566C69.7402 12.7566 69.1052 12.6285 68.5692 12.3722C68.0333 12.1047 67.6197 11.7035 67.3284 11.1686C67.0488 10.6336 66.909 9.95383 66.909 9.12915Z" fill="white"/>
<path d="M19.2879 3.64878C18.8113 2.75988 18.0524 2.03843 17.1201 1.58817C16.0594 1.07373 14.6701 1.07373 11.8913 1.07373L1.73545 1.07373C1.72905 1.0741 1.72287 1.07607 1.71752 1.07945C1.71189 1.08394 1.70774 1.0899 1.70557 1.09659C1.70458 1.10281 1.70509 1.10917 1.70707 1.11517C1.71028 1.1209 1.71489 1.1258 1.72051 1.12946C3.85238 2.19549 3.96891 4.27325 3.95397 5.8923L3.95397 8.61882C3.95397 11.2596 3.95397 12.5814 4.49478 13.5889C4.97166 14.4779 5.73047 15.1997 6.6625 15.6509C7.19434 15.9081 7.80686 16.0353 8.63302 16.0996C9.46067 16.1639 10.5019 16.1639 11.8913 16.1639C14.6701 16.1639 16.0594 16.1639 17.1201 15.6509C18.0522 15.1997 18.811 14.4779 19.2879 13.5889C19.5583 13.0844 19.6927 12.5028 19.7614 11.7169C19.8287 10.9295 19.8287 9.93921 19.8287 8.61882C19.8287 5.97804 19.8287 4.65765 19.2879 3.64878ZM14.5535 13.0901C13.8842 13.4845 13.0232 13.6817 11.9705 13.6817C10.9038 13.6817 10.0274 13.4698 9.34115 13.0458C8.66015 12.6113 8.12806 11.9945 7.81134 11.2725C7.48311 10.4846 7.32065 9.64259 7.33328 8.79459C7.33328 7.65854 7.54841 6.71159 7.97867 5.95375C8.3916 5.21279 9.0234 4.60449 9.79531 4.20466C10.5984 3.80214 11.4942 3.59873 12.4008 3.61305C13.021 3.61306 13.6391 3.68164 14.2428 3.8174C14.7671 3.92593 15.2737 4.10186 15.7487 4.34041C15.7965 4.89249 15.7965 5.4474 15.7487 5.99948C15.7186 6.53332 15.6548 7.06492 15.5575 7.59138L14.0277 7.59138L13.5257 5.9323C13.4779 5.77797 13.4211 5.62651 13.3584 5.47646C13.317 5.37977 13.2513 5.29436 13.1672 5.22781C13.0578 5.14419 12.9372 5.07498 12.8086 5.02204C12.6571 4.96032 12.4937 4.92965 12.329 4.93201C11.8839 4.93201 11.5014 5.19685 11.1817 5.72653C10.8635 6.2424 10.7041 7.12886 10.7036 8.38589C10.7036 9.53766 10.8789 10.4089 11.2295 10.9995C11.5806 11.5754 12.1707 11.8631 12.9998 11.8626C13.4595 11.8727 13.9161 11.7879 14.3384 11.614C14.6529 11.4721 14.9496 11.2966 15.2228 11.091L15.8921 11.5911C15.6845 12.197 15.2383 12.6967 14.5535 13.0901Z" fill="white"/>
<path d="M89.5747 3.95118C89.7847 4.12799 90.0499 4.2164 90.3704 4.2164C90.7572 4.2164 91.0722 4.10036 91.3153 3.86829C91.5695 3.63623 91.6965 3.3489 91.6965 3.00633C91.6965 2.719 91.5916 2.48693 91.3816 2.31012C91.1827 2.12225 90.923 2.02832 90.6025 2.02832C90.2157 2.02832 89.8952 2.14435 89.6411 2.37642C89.3979 2.60849 89.2764 2.89029 89.2764 3.22182C89.2764 3.52019 89.3758 3.76331 89.5747 3.95118Z" fill="white"/>
<path d="M82.3261 12.8108C81.7132 12.8108 81.2117 12.5656 80.8216 12.0753C80.4316 11.5849 80.2421 10.894 80.2533 10.0024C80.2644 9.16661 80.4372 8.4088 80.7715 7.72899C81.1058 7.03804 81.5627 6.49196 82.1422 6.09077C82.7218 5.67843 83.3848 5.47226 84.1315 5.47226C84.4881 5.47226 84.8392 5.51126 85.1847 5.58927C85.5301 5.65614 85.831 5.73415 86.0874 5.8233L85.4856 6.97674C85.2738 6.82072 85.0621 6.69256 84.8503 6.59226C84.6497 6.49196 84.4046 6.44181 84.1148 6.44181C83.8362 6.44181 83.5966 6.53097 83.396 6.70928C83.1954 6.87644 83.0282 7.11048 82.8945 7.41137C82.7608 7.71227 82.6605 8.05218 82.5936 8.43108C82.5267 8.80999 82.4933 9.20562 82.4933 9.61796C82.4821 10.1752 82.5379 10.6042 82.6605 10.9051C82.783 11.1949 82.9446 11.3398 83.1452 11.3398C83.2901 11.3398 83.435 11.284 83.5799 11.1726C83.7359 11.0612 83.8975 10.8884 84.0646 10.6544C84.2318 10.4204 84.3934 10.1306 84.5494 9.78513L84.8002 9.90214C84.633 10.8606 84.321 11.5849 83.8641 12.0753C83.4183 12.5656 82.9056 12.8108 82.3261 12.8108ZM85.6026 12.7774C85.2125 12.7774 84.9339 12.6771 84.7667 12.4765C84.5996 12.2647 84.5048 11.9638 84.4826 11.5738C84.4714 11.4289 84.4658 11.2339 84.4658 10.9887C84.4658 10.7435 84.4658 10.5374 84.4658 10.3702L84.9841 6.30808L86.756 5.38867L87.1572 5.723L86.6056 10.1863C86.5944 10.3201 86.5777 10.4649 86.5554 10.621C86.5443 10.7658 86.5387 10.8828 86.5387 10.972C86.5387 11.1726 86.6056 11.2729 86.7393 11.2729C86.8173 11.2729 86.9232 11.245 87.0569 11.1893C87.2018 11.1225 87.4024 11.0166 87.6587 10.8717L88.0265 11.6741C87.6476 12.0196 87.2408 12.2926 86.8062 12.4932C86.3827 12.6827 85.9815 12.7774 85.6026 12.7774Z" fill="white"/>
<path d="M91.7865 7.34451L91.3853 10.1863C91.363 10.3423 91.3407 10.4928 91.3185 10.6377C91.3073 10.7714 91.3017 10.8996 91.3017 11.0222C91.3017 11.1893 91.3686 11.2729 91.5023 11.2729C91.5915 11.2729 91.7085 11.2395 91.8534 11.1726C92.0094 11.1057 92.1989 11.0054 92.4218 10.8717L92.7895 11.6574C92.4218 12.014 92.015 12.2926 91.5692 12.4932C91.1234 12.6827 90.6777 12.7774 90.2319 12.7774C89.4741 12.7774 89.0952 12.3929 89.0952 11.6239C89.0952 11.4233 89.1119 11.1837 89.1453 10.9051C89.1787 10.6265 89.2177 10.3646 89.2623 10.1195L89.5799 8.13019C89.6022 8.0076 89.6189 7.85158 89.6301 7.66212C89.6524 7.46152 89.6635 7.31665 89.6635 7.22749C89.6635 7.04918 89.6189 6.92659 89.5298 6.85973C89.4406 6.78172 89.3069 6.74271 89.1286 6.74271L88.6271 6.74271L88.7274 5.90689C89.1397 5.75086 89.4964 5.63942 89.7973 5.57255C90.1093 5.50569 90.4158 5.47226 90.7167 5.47226C91.1402 5.47226 91.4355 5.55584 91.6026 5.723C91.781 5.89017 91.8701 6.12977 91.8701 6.44181C91.8701 6.5644 91.859 6.70928 91.8367 6.87645C91.8255 7.04361 91.8088 7.19963 91.7865 7.34451Z" fill="white"/>
<path d="M78.8332 11.583C78.8332 12.0293 78.6893 12.382 78.4013 12.6411C78.1134 12.9002 77.7247 13.0298 77.2353 13.0298C76.7602 13.0298 76.3787 12.9002 76.0908 12.6411C75.8029 12.382 75.6589 12.0293 75.6589 11.583C75.6589 11.1367 75.8029 10.784 76.0908 10.5249C76.3787 10.2658 76.7602 10.1362 77.2353 10.1362C77.7247 10.1362 78.1134 10.2658 78.4013 10.5249C78.6893 10.784 78.8332 11.1367 78.8332 11.583Z" fill="white"/>
</g>
<defs>
<clipPath id="clip0_7602_68603">
<rect width="93.361" height="16.0047" fill="white" transform="translate(0.533508 0.616699)"/>
</clipPath>
</defs>
</svg>
