<svg width="220" height="40" viewBox="0 0 220 40" fill="none" xmlns="http://www.w3.org/2000/svg">
<path d="M53.3814 30.1873C51.8495 30.1873 50.624 29.7834 49.7049 28.9757C48.7857 28.1679 48.3262 27.0956 48.3262 25.7587C48.3262 24.6446 48.6326 23.7115 49.2453 22.9595C49.8859 22.2075 50.7215 21.6365 51.752 21.2466C52.7826 20.8288 53.8828 20.592 55.0526 20.5363L59.0216 20.3274V22.3328L56.4731 22.4999C55.4982 22.5278 54.8298 22.7924 54.4677 23.2937C54.1056 23.7951 53.9246 24.4078 53.9246 25.132C53.9246 25.8283 54.0638 26.3436 54.3423 26.6778C54.6209 27.012 55.0804 27.1792 55.7211 27.1792C56.3617 27.1792 56.9605 27.0538 57.5175 26.8032C58.0746 26.5246 58.5342 26.1625 58.8963 25.7169L59.314 26.8867C58.7848 27.9451 58.005 28.7668 56.9744 29.3517C55.9439 29.9087 54.7462 30.1873 53.3814 30.1873ZM48.8275 16.0242C49.3289 14.7151 50.2062 13.6846 51.4596 12.9325C52.7408 12.1527 54.412 11.7627 56.4731 11.7627C58.952 11.7627 60.7345 12.3337 61.8208 13.4757C62.907 14.5898 63.4502 16.2609 63.4502 18.4891V26.3854C63.4502 26.9424 63.7148 27.2488 64.244 27.3045L65.748 27.5134V29.5606C65.3302 29.672 64.7732 29.7973 64.0768 29.9366C63.4084 30.0758 62.7678 30.1455 62.155 30.1455C61.0966 30.1455 60.2193 29.9227 59.5229 29.477C58.8266 29.0035 58.3671 28.1679 58.1442 26.9703V18.5727C58.1442 17.3472 57.8518 16.4977 57.2669 16.0242C56.7098 15.5507 55.9021 15.3139 54.8437 15.3139C53.9246 15.3139 53.0611 15.4671 52.2534 15.7735C51.4735 16.052 50.7494 16.4977 50.0809 17.1104L48.8275 16.0242Z" fill="#E4002B"/>
<path d="M74.1906 17.194C74.692 16.0799 75.249 15.119 75.8618 14.3112C76.5024 13.4757 77.1848 12.8351 77.909 12.3894C78.661 11.9438 79.4408 11.7209 80.2486 11.7209C80.5828 11.7209 81.0006 11.7767 81.5019 11.8881C82.0033 11.9716 82.3932 12.083 82.6718 12.2223C82.7832 13.0857 82.7971 14.1302 82.7135 15.3557C82.63 16.5812 82.4629 17.765 82.2122 18.9069H79.8308L79.2877 17.1522C79.1762 16.7623 79.0231 16.5116 78.8281 16.4002C78.661 16.2888 78.3964 16.2331 78.0343 16.2331C77.5886 16.2331 77.0594 16.3584 76.4467 16.6091C75.8339 16.8598 75.249 17.3054 74.692 17.946L74.1906 17.194ZM75.4022 17.1104V26.5107C75.4022 27.012 75.6529 27.3045 76.1542 27.3881L78.7028 27.6805V29.853H67.5478V27.6805L69.1771 27.3881C69.6506 27.3045 69.8874 27.012 69.8874 26.5107V16.1495C69.8874 15.6482 69.6646 15.3557 69.2189 15.2722L67.3806 14.8961V12.6401C68.3555 12.3616 69.4 12.1527 70.5141 12.0134C71.656 11.8741 72.7005 11.7906 73.6475 11.7627L74.5249 12.4312L75.4022 17.1104Z" fill="#E4002B"/>
<path d="M91.0876 30.1873C89.7785 30.1873 88.5948 29.8809 87.5364 29.2681C86.5058 28.6554 85.6981 27.7223 85.1132 26.4689C84.5283 25.1877 84.2359 23.5305 84.2359 21.4972C84.2359 19.3804 84.584 17.6118 85.2803 16.1913C85.9766 14.743 86.9933 13.6428 88.3302 12.8908C89.6671 12.1387 91.2965 11.7627 93.2183 11.7627C93.7754 11.7627 94.3464 11.8045 94.9313 11.8881C95.544 11.9716 96.0175 12.083 96.3518 12.2223L95.934 14.8126C95.7111 14.5898 95.3769 14.4227 94.9313 14.3112C94.5135 14.172 94.0818 14.1023 93.6361 14.1023C92.912 14.1023 92.2714 14.3112 91.7143 14.729C91.1851 15.119 90.7673 15.8153 90.4609 16.818C90.1824 17.7928 90.0292 19.1437 90.0014 20.8705C90.0014 22.4024 90.1128 23.6419 90.3356 24.5889C90.5584 25.508 90.8926 26.1765 91.3383 26.5943C91.8118 27.012 92.3688 27.2209 93.0094 27.2209C93.5665 27.2209 94.1514 27.1235 94.7642 26.9285C95.3769 26.7335 95.8643 26.455 96.2264 26.0929L96.8113 26.8449C96.2264 27.8476 95.4466 28.6554 94.4717 29.2681C93.5247 29.8809 92.3967 30.1873 91.0876 30.1873ZM100.947 3.19804V26.3854C100.947 26.7196 101.017 26.9563 101.156 27.0956C101.296 27.207 101.477 27.2766 101.699 27.3045L103.204 27.5134V29.5606C102.841 29.672 102.298 29.7973 101.574 29.9366C100.878 30.0758 100.195 30.1455 99.527 30.1455C98.4129 30.1455 97.5076 29.8669 96.8113 29.3099C96.1429 28.7528 95.6972 27.9173 95.4744 26.8032V6.79103C95.4744 6.28968 95.2377 5.99723 94.7642 5.91367L92.7588 5.62122V3.49049C93.8729 3.18411 95.1123 2.94736 96.4771 2.78025C97.8697 2.61313 99.1092 2.51565 100.195 2.48779L100.947 3.19804Z" fill="#E4002B"/>
<path d="M110.052 30.1873C108.52 30.1873 107.295 29.7834 106.376 28.9757C105.457 28.1679 104.997 27.0956 104.997 25.7587C104.997 24.6446 105.303 23.7115 105.916 22.9595C106.557 22.2075 107.392 21.6365 108.423 21.2466C109.453 20.8288 110.554 20.592 111.723 20.5363L115.692 20.3274V22.3328L113.144 22.4999C112.169 22.5278 111.501 22.7924 111.139 23.2937C110.776 23.7951 110.595 24.4078 110.595 25.132C110.595 25.8283 110.735 26.3436 111.013 26.6778C111.292 27.012 111.751 27.1792 112.392 27.1792C113.033 27.1792 113.631 27.0538 114.188 26.8032C114.746 26.5246 115.205 26.1625 115.567 25.7169L115.985 26.8867C115.456 27.9451 114.676 28.7668 113.645 29.3517C112.615 29.9087 111.417 30.1873 110.052 30.1873ZM105.498 16.0242C106 14.7151 106.877 13.6846 108.13 12.9325C109.412 12.1527 111.083 11.7627 113.144 11.7627C115.623 11.7627 117.405 12.3337 118.492 13.4757C119.578 14.5898 120.121 16.2609 120.121 18.4891V26.3854C120.121 26.9424 120.386 27.2488 120.915 27.3045L122.419 27.5134V29.5606C122.001 29.672 121.444 29.7973 120.748 29.9366C120.079 30.0758 119.439 30.1455 118.826 30.1455C117.768 30.1455 116.89 29.9227 116.194 29.477C115.498 29.0035 115.038 28.1679 114.815 26.9703V18.5727C114.815 17.3472 114.523 16.4977 113.938 16.0242C113.381 15.5507 112.573 15.3139 111.515 15.3139C110.595 15.3139 109.732 15.4671 108.924 15.7735C108.144 16.052 107.42 16.4977 106.752 17.1104L105.498 16.0242Z" fill="#E4002B"/>
<path d="M123.884 37.3732V35.2425L125.556 34.9083C126.001 34.8247 126.224 34.5462 126.224 34.0727V16.1913C126.224 15.6899 126.015 15.3975 125.597 15.3139L123.717 14.9379V12.6819C124.72 12.4312 125.82 12.2223 127.018 12.0552C128.243 11.8881 129.357 11.8045 130.36 11.8045L131.154 12.473L131.739 15.2722V34.0727C131.739 34.574 131.976 34.8526 132.449 34.9083L134.831 35.2425V37.3732H123.884ZM133.494 30.1873C133.076 30.1873 132.616 30.1594 132.115 30.1037C131.641 30.048 131.154 29.9505 130.653 29.8112L130.903 27.0956C131.238 27.4855 131.627 27.7501 132.073 27.8894C132.547 28.0008 133.02 28.0565 133.494 28.0565C134.58 28.0565 135.443 27.5552 136.084 26.5525C136.752 25.5498 137.087 23.6976 137.087 20.9959C137.114 18.8512 136.864 17.3193 136.335 16.4002C135.833 15.4532 135.039 14.9797 133.953 14.9797C133.313 14.9797 132.728 15.0911 132.198 15.3139C131.669 15.5368 131.293 15.7735 131.07 16.0242L130.611 15.0633C131.251 14.0884 132.031 13.2946 132.95 12.6819C133.897 12.0691 135.053 11.7627 136.418 11.7627C137.644 11.7627 138.744 12.0691 139.719 12.6819C140.694 13.2668 141.459 14.1859 142.017 15.4393C142.601 16.6648 142.894 18.2385 142.894 20.1603C142.894 23.4469 142.044 25.9397 140.345 27.6387C138.646 29.3377 136.362 30.1873 133.494 30.1873Z" fill="#E4002B"/>
<path d="M153.167 26.5107C153.167 27.012 153.403 27.3045 153.877 27.3881L155.506 27.6805V29.853H145.312V27.6805L146.942 27.3881C147.415 27.3045 147.652 27.012 147.652 26.5107V16.1913C147.652 15.6899 147.429 15.3975 146.983 15.3139L145.145 14.9379V12.6819C146.231 12.3755 147.443 12.1527 148.78 12.0134C150.117 11.8741 151.328 11.8045 152.415 11.8045L153.167 12.473V26.5107ZM153.125 6.99992C153.125 7.8355 152.846 8.50396 152.289 9.00531C151.76 9.50666 151.05 9.75733 150.159 9.75733C149.239 9.75733 148.501 9.50666 147.944 9.00531C147.415 8.50396 147.15 7.8355 147.15 6.99992C147.15 6.16434 147.415 5.5098 147.944 5.03631C148.501 4.53496 149.239 4.28429 150.159 4.28429C151.05 4.28429 151.76 4.53496 152.289 5.03631C152.846 5.5098 153.125 6.16434 153.125 6.99992Z" fill="#E4002B"/>
<path d="M169.085 21.2466C169.085 19.4918 169.001 18.0853 168.834 17.0269C168.667 15.9685 168.361 15.2165 167.915 14.7708C167.497 14.2973 166.913 14.0606 166.161 14.0606C165.241 14.0606 164.545 14.548 164.072 15.5228C163.626 16.4977 163.403 18.2524 163.403 20.787C163.403 22.5417 163.487 23.9483 163.654 25.0067C163.849 26.0651 164.155 26.831 164.573 27.3045C164.991 27.778 165.576 28.0147 166.328 28.0147C167.247 28.0147 167.929 27.5273 168.375 26.5525C168.848 25.5498 169.085 23.7811 169.085 21.2466ZM157.47 21.2048C157.47 18.893 157.86 17.0547 158.64 15.6899C159.448 14.2973 160.534 13.2946 161.899 12.6819C163.264 12.0691 164.796 11.7627 166.495 11.7627C168.277 11.7627 169.795 12.097 171.049 12.7654C172.302 13.406 173.263 14.3948 173.931 15.7317C174.628 17.0687 174.976 18.7677 174.976 20.8288C174.976 23.1684 174.586 25.0345 173.806 26.4271C173.026 27.7919 171.954 28.7807 170.589 29.3935C169.252 29.9784 167.72 30.2708 165.993 30.2708C164.239 30.2708 162.721 29.9505 161.439 29.3099C160.158 28.6414 159.169 27.6387 158.473 26.3018C157.805 24.9649 157.47 23.2659 157.47 21.2048Z" fill="#E4002B"/>
<path d="M183.574 27.3045C183.574 28.1679 183.295 28.8503 182.738 29.3517C182.181 29.853 181.429 30.1037 180.482 30.1037C179.563 30.1037 178.825 29.853 178.268 29.3517C177.711 28.8503 177.432 28.1679 177.432 27.3045C177.432 26.4411 177.711 25.7587 178.268 25.2573C178.825 24.756 179.563 24.5053 180.482 24.5053C181.429 24.5053 182.181 24.756 182.738 25.2573C183.295 25.7587 183.574 26.4411 183.574 27.3045Z" fill="#E4002B"/>
<path d="M191.452 30.229C189.92 30.229 188.667 29.6163 187.692 28.3908C186.717 27.1652 186.243 25.4384 186.271 23.2102C186.299 21.1212 186.731 19.2272 187.566 17.5282C188.402 15.8014 189.544 14.4366 190.992 13.4339C192.441 12.4033 194.098 11.8881 195.964 11.8881C196.855 11.8881 197.733 11.9855 198.596 12.1805C199.459 12.3476 200.211 12.5426 200.852 12.7654L199.348 15.6482C198.819 15.2582 198.29 14.9379 197.76 14.6873C197.259 14.4366 196.646 14.3112 195.922 14.3112C195.226 14.3112 194.627 14.5341 194.126 14.9797C193.624 15.3975 193.207 15.9824 192.872 16.7344C192.538 17.4864 192.287 18.3359 192.12 19.2829C191.953 20.2299 191.87 21.2187 191.87 22.2492C191.842 23.6419 191.981 24.7142 192.287 25.4662C192.594 26.1904 192.998 26.5525 193.499 26.5525C193.861 26.5525 194.223 26.4132 194.585 26.1347C194.975 25.8562 195.379 25.4244 195.797 24.8395C196.215 24.2546 196.618 23.5305 197.008 22.667L197.635 22.9595C197.217 25.3548 196.437 27.1652 195.295 28.3908C194.181 29.6163 192.9 30.229 191.452 30.229ZM199.64 30.1455C198.666 30.1455 197.969 29.8948 197.552 29.3935C197.134 28.8643 196.897 28.1122 196.841 27.1374C196.813 26.7753 196.8 26.2879 196.8 25.6751C196.8 25.0624 196.8 24.5471 196.8 24.1293L198.095 13.977L202.523 11.6792L203.526 12.5147L202.147 23.6697C202.119 24.004 202.078 24.366 202.022 24.756C201.994 25.1181 201.98 25.4105 201.98 25.6333C201.98 26.1347 202.147 26.3854 202.481 26.3854C202.676 26.3854 202.941 26.3157 203.275 26.1765C203.637 26.0094 204.139 25.7448 204.779 25.3827L205.698 27.3881C204.751 28.2515 203.735 28.9339 202.649 29.4352C201.59 29.9087 200.587 30.1455 199.64 30.1455Z" fill="#E4002B"/>
<path d="M215.096 16.5673L214.093 23.6697C214.037 24.0597 213.982 24.4357 213.926 24.7978C213.898 25.132 213.884 25.4523 213.884 25.7587C213.884 26.1765 214.051 26.3854 214.386 26.3854C214.608 26.3854 214.901 26.3018 215.263 26.1347C215.653 25.9676 216.126 25.7169 216.683 25.3827L217.603 27.3463C216.683 28.2376 215.667 28.9339 214.553 29.4352C213.439 29.9087 212.324 30.1455 211.21 30.1455C209.316 30.1455 208.369 29.1846 208.369 27.2627C208.369 26.7614 208.411 26.1625 208.495 25.4662C208.578 24.7699 208.676 24.1154 208.787 23.5026L209.581 18.5309C209.637 18.2245 209.678 17.8346 209.706 17.3611C209.762 16.8598 209.79 16.4977 209.79 16.2749C209.79 15.8292 209.678 15.5228 209.456 15.3557C209.233 15.1607 208.899 15.0633 208.453 15.0633H207.2L207.45 12.9743C208.481 12.5844 209.372 12.3059 210.124 12.1387C210.904 11.9716 211.67 11.8881 212.422 11.8881C213.48 11.8881 214.218 12.097 214.636 12.5147C215.082 12.9325 215.305 13.5314 215.305 14.3112C215.305 14.6176 215.277 14.9797 215.221 15.3975C215.193 15.8153 215.151 16.2052 215.096 16.5673Z" fill="#E4002B"/>
<path d="M209.561 8.08794C210.085 8.52985 210.748 8.7508 211.549 8.7508C212.516 8.7508 213.303 8.4608 213.911 7.8808C214.546 7.3008 214.863 6.5827 214.863 5.72651C214.863 5.00842 214.601 4.42842 214.076 3.98651C213.579 3.51699 212.93 3.28223 212.129 3.28223C211.162 3.28223 210.361 3.57223 209.726 4.15223C209.119 4.73223 208.815 5.43651 208.815 6.26508C208.815 7.0108 209.063 7.61842 209.561 8.08794Z" fill="#E4002B"/>
<path d="M43.4619 7.507C42.3227 5.28542 40.5084 3.48233 38.2798 2.357C35.7441 1.07129 32.4226 1.07129 25.7798 1.07129H1.5012C1.48591 1.07221 1.47113 1.07714 1.45834 1.08558C1.44488 1.09681 1.43496 1.11169 1.42977 1.12843C1.42739 1.14398 1.42861 1.15986 1.43334 1.17486C1.44103 1.18918 1.45206 1.20143 1.46548 1.21058C6.56191 3.87486 6.84048 9.06772 6.80477 13.1141V19.9284C6.80477 26.5284 6.80477 29.832 8.09763 32.3499C9.23767 34.5717 11.0517 36.3757 13.2798 37.5034C14.5512 38.1463 16.0155 38.4641 17.9905 38.6249C19.9691 38.7856 22.4583 38.7856 25.7798 38.7856C32.4226 38.7856 35.7441 38.7856 38.2798 37.5034C40.5079 36.3757 42.3219 34.5717 43.4619 32.3499C44.1083 31.0891 44.4298 29.6356 44.5941 27.6713C44.7548 25.7034 44.7548 23.2284 44.7548 19.9284C44.7548 13.3284 44.7548 10.0284 43.4619 7.507ZM32.1441 31.1034C30.544 32.0891 28.4857 32.582 25.9691 32.582C23.4191 32.582 21.3238 32.0522 19.6833 30.9927C18.0553 29.9067 16.7833 28.3652 16.0262 26.5606C15.2415 24.5916 14.8531 22.4871 14.8833 20.3677C14.8833 17.5284 15.3976 15.1618 16.4262 13.2677C17.4134 11.4159 18.9237 9.89556 20.7691 8.89629C22.6889 7.89029 24.8305 7.38192 26.9976 7.41772C28.4803 7.41774 29.9579 7.58912 31.4012 7.92843C32.6547 8.19967 33.8657 8.63938 35.0012 9.23558C35.1155 10.6154 35.1155 12.0022 35.0012 13.382C34.9293 14.7162 34.7766 16.0448 34.5441 17.3606H30.8869L29.6869 13.2141C29.5726 12.8284 29.4369 12.4499 29.2869 12.0748C29.188 11.8332 29.031 11.6197 28.8298 11.4534C28.5683 11.2444 28.2801 11.0714 27.9726 10.9391C27.6104 10.7849 27.2199 10.7082 26.8262 10.7141C25.7619 10.7141 24.8476 11.376 24.0833 12.6998C23.3226 13.9891 22.9417 16.2046 22.9405 19.3463C22.9405 22.2248 23.3595 24.4022 24.1976 25.8784C25.0369 27.3177 26.4476 28.0367 28.4298 28.0356C29.5287 28.0608 30.6202 27.8489 31.6298 27.4141C32.3816 27.0595 33.0908 26.621 33.7441 26.107L35.3441 27.357C34.8476 28.8713 33.781 30.1201 32.1441 31.1034V31.1034Z" fill="#E4002B"/>
</svg>
