<svg width="90" height="62" viewBox="0 0 90 62" fill="none" xmlns="http://www.w3.org/2000/svg">
<path d="M5.46143 21.5049C5.46143 21.5049 9.05278 21.937 9.37687 23.5508C9.37687 23.5508 5.81889 30.0266 7.72863 35.1067C7.72863 35.1067 15.9504 27.4465 17.4136 29.3791C17.4136 29.3791 17.2745 27.1869 21.6684 17.8328C21.6657 17.8328 12.6094 16.346 5.46143 21.5049Z" fill="#231F20"/>
<path d="M78.2067 42.0492C78.2067 42.0492 85.1961 43.2406 88.302 41.243C88.302 41.243 89.4968 44.4416 81.3683 48.942C81.3683 48.942 84.0778 55.6856 85.4173 55.6622C85.4173 55.6622 76.9215 57.9579 70.0643 52.0826C70.0657 52.0826 76.2594 47.7244 78.2067 42.0492Z" fill="#231F20"/>
<path d="M77.3594 40.9785C77.3594 40.9785 84.8161 42.2996 87.744 40.0536C87.744 40.0536 88.8109 42.4308 81.0871 47.5869C81.0871 47.5869 84.2862 54.1966 85.6159 54.0627C85.6159 54.0627 78.557 56.444 71.231 51.1554C71.231 51.1554 75.8948 46.7986 77.3594 40.9785Z" fill="var(--color-primary)" stroke="#231F20" stroke-width="4"/>
<path d="M79.5209 30.6674C79.5209 47.6045 65.5658 61.3333 48.3518 61.3333C31.1378 61.3333 17.1952 47.6045 17.1952 30.6674C17.1952 13.7303 31.1433 0 48.3518 0C65.5603 0 79.5209 13.7303 79.5209 30.6674Z" fill="#231F20"/>
<path d="M77.9797 30.5374C77.9797 46.6393 64.7145 59.6917 48.3531 59.6917C31.9917 59.6917 18.7265 46.6393 18.7265 30.5374C18.7265 14.4354 31.9889 1.38025 48.3517 1.38025C64.7145 1.38025 77.9797 14.4382 77.9797 30.5374Z" fill="#FBBB18"/>
<path d="M66.4463 29.9842C66.4463 39.1823 58.3386 46.6383 48.3351 46.6383C38.3316 46.6383 30.2197 39.1823 30.2197 29.9842C30.2197 20.786 38.3302 13.3287 48.3351 13.3287C58.34 13.3287 66.4463 20.786 66.4463 29.9842Z" fill="#231F20"/>
<path d="M65.4433 29.8514C65.4433 38.5387 57.7821 45.5806 48.335 45.5806C38.8879 45.5806 31.2267 38.5401 31.2267 29.8514C31.2267 21.1626 38.8837 14.1222 48.335 14.1222C57.7863 14.1222 65.4433 21.164 65.4433 29.8514Z" fill="white"/>
<path d="M5.70471 19.8267C5.70471 19.8267 11.0333 21.0167 11.299 22.3392C11.299 22.3392 7.83699 30.6676 8.50324 32.65C8.50324 32.65 15.4272 26.7029 16.6262 28.2877L16.3619 29.7413C16.3619 29.7413 7.30566 37.2732 11.4325 38.8622C11.4325 38.8622 15.0281 40.5809 16.3619 48.3792C16.3619 48.3792 17.2939 52.3453 22.087 49.0404C22.087 49.0404 38.2022 31.5926 62.1747 40.3172C62.1747 40.3172 78.1578 44.0169 81.7519 38.8622C81.7519 38.8622 80.023 29.2126 82.9523 27.8915C82.9523 27.8915 86.8148 24.9828 82.1539 23.2641C82.1539 23.2641 79.6892 22.1404 78.3581 22.2743L78.557 23.1316C78.557 23.1316 82.6852 23.3966 82.6852 24.987C82.6852 24.987 82.9523 28.9531 60.9771 26.4406C60.9771 26.4406 36.7375 20.3665 27.4142 26.0444C27.4142 26.0444 18.4901 31.2005 13.562 35.5614C13.562 35.5614 9.23487 37.08 16.2938 31.0059L16.4329 33.3844L17.2939 32.5796C17.2939 32.5796 16.6262 25.1788 20.2231 17.5117C20.2231 17.5144 11.5661 15.5997 5.70471 19.8267Z" fill="var(--color-primary)" stroke="#231F20" stroke-width="4"/>
<path d="M59.0579 50.0491L60.4752 52.3627L58.0119 53.6673L58.7352 49.7343L57.5112 48.0432L57.9646 47.5449L59.0579 50.0491Z" fill="#B5D44D"/>
<path d="M47.5185 21.3271L47.0734 24.7908L49.5186 25.0075L49.0582 24.2248L48.0178 24.0591L48.0387 21.7661L47.5185 21.3271Z" fill="#96333A" stroke="#037648"/>
<path d="M58.5668 4.91446C58.5668 4.91446 47.1431 1.79458 43.9996 3.8653C43.9996 3.8653 38.1647 6.07407 35.9754 6.58761C35.9754 6.58761 30.37 9.12355 30.0292 9.50318C29.6885 9.88281 30.4827 14.4398 32.8111 14.8139C35.1395 15.188 33.9767 13.7095 33.9767 13.7095C33.9767 13.7095 37.2565 9.94079 41.1538 10.1354C41.1538 10.1354 47.036 11.0811 48.9972 10.2486C48.9972 10.2486 55.9518 7.21158 57.2718 9.43139C57.7983 8.81285 58.1861 8.09014 58.4094 7.31133C58.6326 6.53252 58.6863 5.71545 58.5668 4.91446Z" fill="#9E6126"/>
<path d="M51.3339 48.4358C51.3339 48.4358 43.6032 38.1705 43.8953 32.9192C43.8953 32.9192 42.891 28.7474 40.0842 26.1549C40.0842 26.1549 31.8986 16.1063 31.3742 13.2998C31.3742 13.2998 33.2172 14.8819 34.1088 12.8774C35.0003 10.8729 34.156 12.6013 34.156 12.6013C34.156 12.6013 38.4846 9.28815 39.8588 9.50627C39.8588 9.50627 48.68 10.4892 49.1349 9.41653C49.1349 9.41653 57.1786 6.55756 57.4095 8.59929C57.4095 8.59929 54.8404 24.3699 55.024 30.1348C55.024 30.1348 52.4174 40.9784 51.907 43.2383C51.9028 43.2272 51.2421 46.4134 51.3339 48.4358Z" fill="#FBB53C"/>
<path d="M33.5857 15.0103L34.9488 17.5931L36.7097 19.7025L38.0339 21.9499L43.0787 28.4492L44.3306 29.8297L45.2068 36.0929L47.3113 41.9089L50.8665 47.845L48.488 42.4183L47.3113 38.691L46.3543 34.8864C46.1968 34.1953 45.9886 33.5166 45.7312 32.8557C45.3543 31.9349 45.0636 29.849 45.0636 29.849L43.9341 27.0881L42.8548 25.3045L41.6753 23.503L39.7948 21.4833L38.7836 19.9275L38.7655 19.385L38.8503 18.8646L37.6388 17.2729L35.2089 15.3788L33.5857 15.0103Z" fill="#D28B34"/>
<path d="M34.931 10.4281L39.7602 7.48219C39.7602 7.48219 39.464 6.71602 41.88 7.39108C44.296 8.06613 44.2543 8.34499 45.6202 8.55897C46.9861 8.77294 47.9444 8.93446 47.9444 8.93446L52.7097 7.26407L56.105 7.0929L57.9271 7.95984L49.7902 8.79917L47.6955 9.60951L44.2529 9.19537L41.6533 8.78122L39.464 9.292L35.8476 10.8547L34.931 10.4281Z" fill="#C27729"/>
<path d="M30.0555 8.54547C30.0235 8.66695 29.5673 8.99137 29.4324 9.13356C29.3477 9.23011 29.2701 9.33252 29.2001 9.44002C28.8649 9.96046 28.7828 10.5775 29.1 11.4707C29.1181 11.566 29.1361 11.6626 29.1612 11.7592C29.3893 12.6372 30.0486 13.6325 31.5257 14.6582C31.5257 14.6582 32.3144 16.2168 33.1629 17.5338C33.2129 17.6125 33.2602 17.6898 33.3117 17.7643C34.0197 18.9391 35.074 19.9123 35.7013 21.4309C35.7416 21.5082 35.7834 21.5855 35.8265 21.6656C36.3733 22.673 36.9818 23.6462 37.6486 24.5797C37.7126 24.6653 37.7724 24.7495 37.8377 24.8351C38.3023 25.3721 38.7349 25.9285 39.1661 26.4144C39.2537 26.511 39.3413 26.6035 39.4262 26.6905C39.9686 27.1143 40.6933 27.6334 41.4166 28.198C41.5265 28.267 41.6377 28.336 41.7448 28.4133C42.2831 28.7943 42.7505 29.2803 42.8757 30.0478L43.0036 30.2894C43.1316 30.5351 43.2582 30.7919 43.3708 31.0639C43.4056 31.1481 43.4418 31.2337 43.4751 31.322C44.325 32.6348 43.2832 34.0719 44.1122 35.3571C44.14 35.4621 44.1762 35.5739 44.2109 35.6871C45.0997 38.5585 47.2877 44.4435 51.1836 47.9223C51.1836 47.9223 45.8759 39.2542 44.9926 34.9775C44.9634 34.8326 44.9384 34.6945 44.9217 34.5634C44.9217 33.9339 45.1137 32.7591 44.6032 31.6865C44.5754 31.5484 44.5434 31.4104 44.5072 31.2626C44.3438 30.5863 44.137 29.9209 43.8882 29.2706C43.834 29.1326 43.777 28.9862 43.7158 28.844C43.5998 28.5277 43.4535 28.223 43.279 27.9343C43.2206 27.8294 43.1566 27.7231 43.0885 27.6154C42.4612 26.714 41.4041 25.7393 40.2913 24.7164C40.2051 24.6391 40.1189 24.5577 40.0382 24.4721C39.7884 24.2187 39.5809 23.9274 39.4234 23.6093C39.3538 23.503 39.2732 23.3898 39.1842 23.2683C38.5624 22.4027 37.6736 21.1437 36.7751 19.8171C36.7208 19.737 36.668 19.657 36.6137 19.5796C36.4468 18.9253 35.7235 18.4076 35.3772 17.6815C35.3299 17.6014 35.2798 17.5227 35.2381 17.4468C34.0322 15.5141 33.1336 13.8134 33.3631 13.3426C33.5985 12.4659 33.4792 11.5325 33.0307 10.7418C32.9811 10.6505 32.9248 10.5628 32.8624 10.4795C32.2754 9.82103 31.6106 8.91268 30.4102 8.57998C30.2864 8.57446 30.1738 8.55928 30.0555 8.54547Z" fill="#231F20"/>
<path d="M29.8025 9.10046C29.8025 9.10046 29.043 15.3513 32.9571 13.0583C32.9571 13.0583 33.7096 10.0571 29.8025 9.10046Z" fill="#D28B34"/>
<path d="M30.2408 8.85002C30.2408 8.85002 31.6637 8.36547 33.5929 7.68903C34.4414 7.39223 35.1327 6.7724 36.0966 6.42866C36.9756 6.11253 38.3415 5.77017 39.0314 5.49131C40.6805 4.84003 42.2554 4.01728 43.7299 3.03682C43.7299 3.03682 48.8583 1.44927 58.5669 4.91427C58.5669 4.91427 59.2693 7.71388 57.201 9.11369C57.201 9.11369 59.0523 6.23125 57.8436 5.36845C57.8436 5.36845 46.509 1.27394 43.314 5.17656C43.314 5.17656 32.1909 9.29729 30.2408 8.85002Z" fill="#231F20"/>
<path d="M41.5211 19.5794C41.5211 19.5794 41.1998 17.118 42.5587 16.9357C42.5587 16.9357 44.8412 16.5989 45.0902 17.5404C45.0902 17.5404 45.9873 19.4924 44.7272 20.3938C44.7272 20.3938 42.0093 22.1664 41.5211 19.5794Z" fill="#942B24"/>
<path opacity="0.42" d="M41.9842 19.8541C41.9842 19.8541 41.6601 17.3941 43.0163 17.2077C43.0163 17.2077 45.2974 16.8723 45.5519 17.8165C45.5519 17.8165 46.4463 19.7671 45.1861 20.67C45.1889 20.67 42.4724 22.4397 41.9842 19.8541Z" fill="#942B24"/>
<path opacity="0.42" d="M48.043 16.8116C48.043 16.8116 47.7189 14.3488 49.0792 14.168C49.0792 14.168 51.3589 13.8284 51.6107 14.774C51.6107 14.774 52.5064 16.7246 51.2476 17.6247C51.2476 17.6247 48.5312 19.3986 48.043 16.8116Z" fill="#942B24"/>
<path d="M48.0235 16.3065C48.0235 16.3065 47.6994 13.8437 49.0597 13.6629C49.0597 13.6629 51.3395 13.326 51.5884 14.2716C51.5884 14.2716 52.487 16.2195 51.224 17.1237C51.2226 17.1182 48.5131 18.8921 48.0235 16.3065Z" fill="#942B24"/>
<g opacity="0.32">
<path opacity="0.32" d="M48.5185 36.326C48.5185 36.326 47.8036 38.2201 49.3141 38.2587C49.3141 38.2587 50.6272 38.267 50.406 36.5248C50.406 36.5248 49.8775 35.437 49.2529 35.5378L48.5185 36.326Z" fill="#231F20"/>
<path opacity="0.32" d="M48.9984 37.1063L49.4268 37.5756L49.7189 37.0221L49.3392 36.2587L48.9984 37.1063Z" fill="#FBB53C"/>
</g>
<path d="M48.6844 36.5525C48.6844 36.5525 47.9695 38.4465 49.4828 38.4852C49.4828 38.4852 50.7945 38.4948 50.5719 36.7527C50.5719 36.7527 50.0392 35.6648 49.4188 35.7642L48.6844 36.5525Z" fill="#231F20"/>
<path d="M49.1641 37.3337L49.5897 37.8044L49.8846 37.2481L49.5048 36.4861L49.1641 37.3337Z" fill="#FBB53C"/>
<g opacity="0.39">
<path opacity="0.39" d="M48.9763 22.346C48.9763 22.346 48.2628 24.2414 49.7761 24.2787C49.7761 24.2787 51.0863 24.2897 50.8638 22.5489C50.8638 22.5489 50.3352 21.4584 49.7107 21.5605L48.9763 22.346Z" fill="#231F20"/>
<path opacity="0.39" d="M49.4545 23.1271L49.8843 23.5979L50.1778 23.0415L49.7967 22.2781L49.4545 23.1271Z" fill="#FBB53C"/>
</g>
<path d="M49.1083 22.7777C49.1083 22.7777 48.3962 24.6704 49.9067 24.7104C49.9067 24.7104 51.2184 24.7201 50.9972 22.9779C50.9972 22.9779 50.4659 21.8873 49.8455 21.9881L49.1083 22.7777Z" fill="#231F20"/>
<path d="M49.5883 23.5498L50.018 24.022L50.3115 23.467L49.9276 22.6995L49.5883 23.5498Z" fill="#FBB53C"/>
<g opacity="0.52">
<path opacity="0.52" d="M39.9717 13.6767C39.9717 13.6767 39.2596 15.5679 40.7701 15.6093C40.7701 15.6093 42.0859 15.6176 41.8606 13.8768C41.8606 13.8768 41.3293 12.7876 40.7075 12.8884L39.9717 13.6767Z" fill="#231F20"/>
<path opacity="0.52" d="M40.4517 14.4551L40.8801 14.9259L41.1722 14.3709L40.7938 13.6061L40.4517 14.4551Z" fill="#FBB53C"/>
</g>
<path d="M39.578 13.6101C39.578 13.6101 38.8659 15.5069 40.3778 15.5428C40.3778 15.5428 41.6894 15.5524 41.4683 13.8117C41.4683 13.8117 40.937 12.7225 40.3124 12.8232L39.578 13.6101Z" fill="#231F20"/>
<path d="M40.0576 14.3917L40.4874 14.8625L40.7795 14.3062L40.3984 13.5441L40.0576 14.3917Z" fill="#FBB53C"/>
<path d="M41.8424 20.1977C41.8424 20.1977 40.2831 16.7355 43.4864 16.9495C43.4864 16.9495 44.9692 16.9495 45.0902 17.5403C45.0902 17.5403 42.0566 17.0199 42.1456 18.3396C42.1456 18.3396 41.6921 19.8788 41.8424 20.1977Z" fill="#833236"/>
<path d="M48.8764 17.5794C48.8764 17.5794 47.1141 16.3949 48.6163 13.7899C48.6163 13.7899 49.2909 13.5994 49.6178 13.6519C49.9446 13.7044 49.6025 13.7499 49.6025 13.7499C49.6025 13.7499 48.3785 13.6119 48.4063 15.2988C48.4063 15.2974 47.8847 16.0498 48.8764 17.5794Z" fill="#833236"/>
<path opacity="0.42" d="M47.3282 31.7512C47.3282 31.7512 47.0041 29.2925 48.3644 29.1089C48.3644 29.1089 50.6455 28.7721 50.8959 29.7163C50.8959 29.7163 51.7916 31.667 50.5329 32.5698C50.5273 32.5698 47.8136 34.341 47.3282 31.7512Z" fill="#942B24"/>
<path d="M46.8498 31.574C46.8498 31.574 46.5285 29.1153 47.886 28.9317C47.886 28.9317 50.1671 28.5949 50.4175 29.5378C50.4175 29.5378 51.3118 31.4898 50.0558 32.3898C50.0558 32.3898 47.3366 34.1637 46.8498 31.574Z" fill="#942B24"/>
<path d="M47.9194 32.7536L47.8484 32.6928C47.58 32.4678 46.6954 31.565 47.3338 29.947C47.3338 29.947 48.2337 28.6522 49.3256 29.0939C49.3256 29.0939 48.0738 28.492 47.3783 29.2182C47.3783 29.2182 46.1265 30.9231 47.363 32.6293C47.3686 32.6293 47.6148 32.9689 47.9194 32.7536Z" fill="#833236"/>
<path opacity="0.19" d="M42.9884 14.2083C42.9884 14.2083 42.8493 13.1468 43.4363 13.0667C43.4363 13.0667 44.421 12.9217 44.5281 13.329C44.5281 13.329 44.9162 14.1725 44.3723 14.5618C44.3723 14.5618 43.2012 15.3238 42.9884 14.2083Z" fill="#EAB649"/>
<path d="M42.7256 14.1735C42.7256 14.1735 42.5865 13.1105 43.1721 13.0304C43.1721 13.0304 44.1582 12.8924 44.2667 13.2927C44.2667 13.2927 44.652 14.1348 44.1096 14.5255C44.1096 14.5255 42.937 15.2903 42.7256 14.1735Z" fill="#FFDA79"/>
<path d="M43.2083 14.6328C43.1961 14.6268 43.1845 14.6199 43.1735 14.612C43.0608 14.5126 42.6769 14.1206 42.9551 13.4234C42.9551 13.4234 43.3418 12.863 43.8147 13.0549C43.8147 13.0549 43.2722 12.7967 42.9732 13.1073C42.9732 13.1073 42.4349 13.8445 42.9662 14.5803C42.9916 14.6188 43.0312 14.6459 43.0764 14.6557C43.1217 14.6655 43.169 14.6573 43.2083 14.6328Z" fill="#EAB649"/>
<path opacity="0.19" d="M50.338 20.6089C50.338 20.6089 50.1989 19.546 50.7873 19.4659C50.7873 19.4659 51.772 19.3279 51.8805 19.7268C51.8805 19.7268 52.2672 20.5689 51.722 20.961C51.722 20.961 50.548 21.7257 50.338 20.6089Z" fill="#EAB649"/>
<path d="M50.0752 20.5688C50.0752 20.5688 49.9362 19.5044 50.5245 19.4258C50.5245 19.4258 51.5079 19.2808 51.6178 19.6881C51.6178 19.6881 52.0045 20.5301 51.4606 20.9208C51.4606 20.925 50.2867 21.6898 50.0752 20.5688Z" fill="#FFDA79"/>
<path d="M50.5577 21.0319L50.5257 21.007C50.4103 20.9077 50.0278 20.5184 50.3032 19.8198C50.3032 19.8198 50.694 19.2594 51.1642 19.4526C51.1642 19.4526 50.6245 19.1931 50.3296 19.5051C50.3296 19.5051 49.7843 20.2409 50.3199 20.9794C50.3185 20.9836 50.427 21.1216 50.5577 21.0319Z" fill="#EAB649"/>
<path opacity="0.19" d="M46.5896 27.4842C46.5896 27.4842 46.4505 26.4226 47.0375 26.3426C47.0375 26.3426 48.0209 26.1962 48.1308 26.6049C48.1308 26.6049 48.5174 27.4469 47.9736 27.8362C47.9736 27.8362 46.7997 28.601 46.5896 27.4842Z" fill="#EAB649"/>
<path d="M46.3237 27.4496C46.3237 27.4496 46.1846 26.3866 46.7729 26.3093C46.7729 26.3093 47.7591 26.1602 47.8662 26.5702C47.8662 26.5702 48.2529 27.411 47.7104 27.8003C47.7104 27.8003 46.5365 28.5664 46.3237 27.4496Z" fill="#FFDA79"/>
<path d="M46.8063 27.9066L46.7716 27.8859C46.6575 27.7879 46.2736 27.3944 46.5476 26.6973C46.5476 26.6973 46.9399 26.1382 47.41 26.3301C47.41 26.3301 46.8689 26.0705 46.5685 26.3825C46.5685 26.3825 46.0274 27.1197 46.5685 27.8541C46.5699 27.8514 46.6756 28.0005 46.8063 27.9066Z" fill="#EAB649"/>
<path opacity="0.19" d="M51.8292 31.9384C51.8292 31.9384 51.6901 30.8768 52.2784 30.7967C52.2784 30.7967 53.2618 30.6504 53.3689 31.0576C53.3689 31.0576 53.757 31.9025 53.2145 32.2904C53.2145 32.2904 52.0406 33.0566 51.8292 31.9384Z" fill="#EAB649"/>
<path d="M51.5677 31.9025C51.5677 31.9025 51.4286 30.8423 52.0142 30.7623C52.0142 30.7623 52.999 30.6159 53.1075 31.0259C53.1075 31.0259 53.4941 31.8653 52.9517 32.2573C52.9517 32.2573 51.7791 33.0221 51.5677 31.9025Z" fill="#FFDA79"/>
<path d="M52.0477 32.3599C52.0368 32.3535 52.0266 32.3461 52.0171 32.3378C51.9002 32.2398 51.5191 31.8491 51.7931 31.1506C51.7931 31.1506 52.184 30.5915 52.6555 30.782C52.6555 30.782 52.1144 30.5239 51.8209 30.8373C51.8209 30.8373 51.2771 31.5731 51.8126 32.3088C51.8371 32.3464 51.8755 32.3728 51.9195 32.3823C51.9636 32.3919 52.0096 32.3838 52.0477 32.3599Z" fill="#EAB649"/>
<path opacity="0.19" d="M35.6275 14.6826C35.6275 14.6826 35.4884 13.6197 36.0754 13.541C36.0754 13.541 37.0616 13.3947 37.1687 13.8033C37.1687 13.8033 37.5567 14.6468 37.0143 15.0347C37.0143 15.0347 35.8404 15.7995 35.6275 14.6826Z" fill="#EAB649"/>
<path d="M35.3664 14.6471C35.3664 14.6471 35.2273 13.5855 35.8142 13.5068C35.8142 13.5068 36.7976 13.3605 36.9047 13.7691C36.9047 13.7691 37.2928 14.6112 36.7503 15.0005C36.7573 15.0005 35.5764 15.7639 35.3664 14.6471Z" fill="#FFDA79"/>
<path d="M35.849 15.105C35.8378 15.0979 35.8271 15.0901 35.817 15.0815C35.6987 14.9821 35.3176 14.5914 35.593 13.8943C35.593 13.8943 35.9811 13.3421 36.4554 13.5285C36.4554 13.5285 35.9129 13.2662 35.6209 13.5795C35.6209 13.5795 35.0784 14.3167 35.6209 15.0525C35.6455 15.0879 35.6825 15.1129 35.7247 15.1226C35.7669 15.1323 35.8112 15.126 35.849 15.105Z" fill="#EAB649"/>
<path opacity="0.19" d="M49.2989 41.57C49.2989 41.57 49.1598 40.5056 49.7467 40.4269C49.7467 40.4269 50.7301 40.282 50.8386 40.6892C50.8386 40.6892 51.2253 41.5313 50.6842 41.922C50.6842 41.922 49.5117 42.6868 49.2989 41.57Z" fill="#EAB649"/>
<path d="M49.0349 41.5344C49.0349 41.5344 48.8958 40.47 49.4828 40.3927C49.4828 40.3927 50.4661 40.2478 50.5774 40.655C50.5774 40.655 50.9627 41.4999 50.4202 41.885C50.4202 41.885 49.2477 42.6567 49.0349 41.5344Z" fill="#FFDA79"/>
<path d="M49.5161 41.9917L49.4869 41.9669C49.3729 41.8703 48.989 41.4796 49.2644 40.7825C49.2644 40.7825 49.6538 40.2234 50.124 40.4139C50.124 40.4139 49.5843 40.153 49.2894 40.4663C49.2894 40.4663 48.7497 41.2035 49.2894 41.9393C49.2755 41.9393 49.3868 42.0884 49.5161 41.9917Z" fill="#EAB649"/>
<path d="M43.7285 25.0348L45.9039 21.8376L43.1374 24.5544L43.0623 25.344C43.0623 25.344 43.2431 25.8782 43.7285 25.0348Z" fill="#16B14B"/>
<path d="M43.4198 25.1388C43.4198 25.1388 44.6869 23.5015 44.9247 23.0681C45.1626 22.6346 44.9512 22.9618 44.9512 22.9618L43.4893 24.4927L43.2515 24.8489L43.4198 25.1388Z" fill="#037648"/>
<path d="M50.1989 12.3747L54.0044 14.0906L50.6106 11.6638L49.7524 11.7259C49.7524 11.7259 49.2113 12.0103 50.1989 12.3747Z" fill="#16B14B"/>
<path d="M50.1098 12.0599C50.1098 12.0599 52.0571 13.1478 52.5634 13.33C53.0697 13.5122 52.683 13.3396 52.683 13.3396L50.8053 12.0337L50.388 11.8363L50.1098 12.0599Z" fill="#037648"/>
<path d="M45.9108 16.5233L47.6342 19.7247L46.5729 16.2472L45.9428 15.8331C45.9428 15.8331 45.4156 15.7544 45.9108 16.5233Z" fill="#16B14B"/>
<path d="M46.0107 16.2548C46.0107 16.2548 46.7841 18.0397 47.0372 18.4318C47.2904 18.8238 47.111 18.5008 47.111 18.5008L46.5129 16.6068L46.3279 16.2506L46.0107 16.2548Z" fill="#037648"/>
<path d="M37.692 14.503L39.4181 17.6988L38.3582 14.2186L37.7268 13.8045C37.7268 13.8045 37.1982 13.73 37.692 14.503Z" fill="#16B14B"/>
<path d="M37.7921 14.2338C37.7921 14.2338 38.5654 16.0133 38.8186 16.4095C39.0717 16.8057 38.8978 16.4799 38.8978 16.4799L38.297 14.5859L38.1134 14.2311L37.7921 14.2338Z" fill="#037648"/>
<path d="M52.1965 24.1445L51.0837 26.6529L52.6708 24.4054L52.6221 23.8422C52.6221 23.8422 52.4315 23.4916 52.1965 24.1445Z" fill="#16B14B"/>
<path d="M52.3746 23.9827C52.3746 23.9827 51.7222 25.3011 51.6179 25.6393C51.5136 25.9775 51.6179 25.7166 51.6179 25.7166L52.4191 24.4466L52.5359 24.1705L52.3746 23.9827Z" fill="#037648"/>
<path d="M51.537 36.5823L50.4243 39.0879L52.0113 36.8432L51.964 36.2814C51.964 36.2814 51.7679 35.9266 51.537 36.5823Z" fill="#16B14B"/>
<path d="M51.711 36.4185C51.711 36.4185 51.0587 37.7355 50.9558 38.0751C50.8529 38.4147 50.9558 38.1524 50.9558 38.1524L51.7556 36.881L51.871 36.6049L51.711 36.4185Z" fill="#037648"/>
<path d="M55.426 8.22742C55.426 8.22742 53.3174 20.5344 54.5122 23.1366V26.8501L54.6151 28.0732C54.6151 28.0732 57.3232 9.23379 57.4053 8.59463L57.0965 7.89197L55.426 8.22742Z" fill="#D28B34"/>
<path d="M30.6578 13.3165C30.6578 13.3165 35.5747 14.3739 31.2851 9.26754L32.2671 9.73829L32.7887 9.66098L33.2895 9.96055L33.8597 10.2366C33.8597 10.2366 38.3107 7.98646 40.9075 8.40198C40.9075 8.40198 43.5155 9.43596 45.5685 9.72863L45.8467 9.76452C46.0525 9.63337 46.4462 9.69687 46.6173 9.80593C46.7672 9.80336 46.9168 9.79091 47.0651 9.76866C47.3078 9.73961 47.5387 9.64878 47.7356 9.50499C47.7356 9.50499 55.7389 6.90278 57.5415 8.2667C57.5415 8.2667 50.541 9.0798 47.8301 10.1138L47.5923 10.2159C46.7063 10.5486 45.7924 11.203 44.4961 10.5542C44.3473 10.5114 44.1887 10.4658 44.0232 10.4161C41.0689 9.60024 36.0616 8.7899 34.7694 12.1017C34.7694 12.1017 32.0279 15.6799 30.6578 13.3165Z" fill="#231F20"/>
<path d="M50.9347 47.5551C50.9347 47.5551 50.3783 39.8382 53.3187 34.7884L53.793 34.3632L53.7499 35.861C53.7499 35.861 50.3324 45.0495 50.9347 47.5551Z" fill="#D28B34"/>
<path d="M51.1781 47.93C51.1781 47.93 52.0696 41.428 53.4355 37.0587L53.5232 36.7951C54.3132 35.8522 54.1741 34.2246 54.6943 33.0043C54.7402 32.8662 54.7805 32.7378 54.8167 32.6081C54.8521 32.479 54.8805 32.3481 54.9016 32.216C54.9224 32.078 54.9461 31.9399 54.9683 31.8019C54.9906 31.6638 55.01 31.5258 55.0337 31.3974C55.0448 31.3146 55.0559 31.2276 55.0671 31.1434C55.6234 27.2076 56.5206 20.3867 56.7167 16.6276C56.7264 16.4896 56.732 16.3515 56.7376 16.2135C56.8892 15.1091 57.0589 14.0503 56.9587 12.8134C56.9476 12.6753 56.9351 12.5373 56.9128 12.3882C57.0881 11.4053 56.5526 9.71144 57.1646 8.56012C57.1729 8.44692 57.077 8.00793 57.0964 7.89197C56.9977 7.99688 57.0158 8.42207 56.9295 8.52285C56.1603 9.64794 55.9684 10.8227 55.8126 12.148C55.8015 12.2377 55.7876 12.3302 55.7737 12.4241C55.9197 13.6251 55.7278 14.7985 55.5094 15.8491C55.5094 15.9636 55.4997 16.0851 55.4913 16.2135C55.3355 19.6247 54.9572 26.9605 54.4759 31.0399C54.4662 31.1241 54.4551 31.2055 54.4439 31.2883C54.405 31.4181 54.3647 31.552 54.3299 31.6873C54.2951 31.8226 54.2548 31.9634 54.22 32.1014C54.1505 32.2229 54.0809 32.3499 54.0239 32.4783C53.9669 32.6067 53.9057 32.7365 53.8528 32.8676C53.0002 34.0396 53.9265 35.7942 53.053 36.8323C53.0141 36.9801 52.971 37.1333 52.9334 37.2893C51.9305 41.0235 50.5827 46.689 51.1781 47.93Z" fill="#231F20"/>
<path d="M35.4316 42.9866L42.0496 46.4751L40.9578 47.7741L44.9052 48.3332L44.748 48.8136L51.615 48.982L51.8751 49.2636L58.6378 46.4226L59.1607 45.8635L61.7506 42.8292L71.6804 47.5615L69.6998 50.5627L66.2531 49.0897L65.7259 49.5315L66.5215 51.7941L64.1166 53.753L63.8509 54.4777L56.7698 57.1572L55.109 55.8872L56.3706 50.9161L53.5414 52.8971L52.4927 51.6519L49.9014 54.6875L52.9155 54.9388L53.0824 59.1852L45.5645 58.2865L44.2097 55.8748L47.936 52.3076L44.531 52.7259L44.1277 49.7924L42.8299 51.8714L42.2958 57.8088L37.7002 56.634L39.7685 49.5494L37.0159 51.8852L34.6875 50.7062L33.9489 54.0567L29.9709 50.6634L35.4316 42.9866Z" fill="var(--color-primary)"/>
<path d="M61.6169 43.7229L59.7795 46.0076L63.8953 53.0563L65.7647 51.4205L64.8703 49.5775L66.2125 48.324L69.3588 49.9295L70.8944 47.7208L61.6169 43.7229Z" fill="#231F20"/>
<path d="M35.7211 43.7976L30.9321 50.3742L33.44 52.5471L34.4011 49.9545L36.5946 50.9029L38.788 49.5445L41.0761 46.5862L35.7211 43.7976Z" fill="#231F20"/>
<path d="M40.8589 48.2509L44.1915 48.7257L42.2234 51.9644L41.6879 56.8361L38.4734 56.2397L40.8589 48.2509Z" fill="#231F20"/>
<path d="M44.6603 49.4697L44.8676 52.1782L49.0028 51.6619L44.9441 55.8365L45.6284 57.2184L52.4119 58.0991L52.3327 55.5024L48.7177 55.4596L51.697 51.6371L51.5969 49.8093L44.6603 49.4697Z" fill="#231F20"/>
<path d="M36.7667 47.2872L35.9474 47.983L36.5094 48.1873L37.2758 47.6144L36.7667 47.2872Z" fill="#FBBB18"/>
<path d="M62.8005 46.3769L62.5682 46.5674L63.6629 47.5738L64.0148 47.3184L62.8005 46.3769Z" fill="#FBBB18"/>
<path d="M52.0836 49.7238L53.6873 52.2404L57.0464 49.8163L55.7013 55.5025L57.0269 56.259L63.0913 54.0461L61.8005 51.691L58.8838 53.2053L59.4833 48.4468L58.3093 47.0884L52.0836 49.7238Z" fill="#231F20"/>
<path d="M60.0216 48.6011L59.4917 52.2179L61.7005 50.8485L60.1204 47.7189L60.0216 48.6011Z" fill="#FBBB18"/>
</svg>
